{
  "IcoMoonType": "selection",
  "icons": [
    {
      "icon": {
        "paths": [
          "M59.439 557.591c0.312 0 0.628-0.003 0.944-0.010 20.769-0.509 37.193-17.759 36.68-38.528l-4.266-173.458 38.504-30.598c0 0-18.259 142.106-20.218 189.777-0.469 11.402 1.094 45.637 1.094 45.637 11.143-4.792 18.102-6.976 30.139-11.045l179.595-60.699-35.268-5.723c-34.3-5.567-54.518-33.25-57.877-50.249l-29.793-150.886 65.227 143.889c5.227 11.52 15.851 19.59 28.234 21.601l148.349 24.077c20.395 3.311 39.812-10.495 43.157-31.104 3.328-20.507-10.597-39.829-31.104-43.157l-128.436-20.847-59.076-130.311 77.586 95.79 7.54-70.783c3.274-30.723-18.918-58.308-49.631-61.691-67.72-7.312-104.207-10.865-114.283-10.59-9.472 0.258-19.22 1.593-27.222 7.954l-127.981 101.703c-9.238 7.339-14.492 18.585-14.203 30.373l4.724 192.182c0.499 20.453 17.236 36.694 37.584 36.694z",
          "M212.472 878.62l13.986-133.51c0.37-3.529 0.309-7.092-0.18-10.607l-9.578-68.81-39.972 13.511c-16.944 5.726-31.426 15.508-42.743 27.894l4.758 34.198-10.223 97.587c20.629 26.685 51.764 40.617 83.951 39.737z",
          "M345.754 841.45l11.14-102.451c0.509-4.67 0.262-9.391-0.73-13.983l-21.424-99.221-83.553 28.241 17.821 82.541-14.465 133.031 91.212-28.159z",
          "M360.617 83.027c0 45.855-37.172 83.027-83.027 83.027s-83.027-37.172-83.027-83.027c0-45.855 37.172-83.027 83.027-83.027s83.027 37.172 83.027 83.027z",
          "M1006.56 687.521c-5.75-4.262-13.178-5.529-20.015-3.417l-735.393 226.981c-75.857 23.421-156.364-20.572-177.588-97.135-19.987-72.121 19.896-147.388 90.794-171.349l834.943-282.205c17.328-5.855 26.627-24.647 20.769-41.972-5.855-17.328-24.651-26.621-41.972-20.769l-464.13 156.87c-13.592 30.115-45.722 47.888-78.978 42.488l-31.569-5.125-260.268 87.969c-104.179 35.21-162.78 145.805-133.412 251.781 18.717 67.536 72.213 124.703 145.098 144.514-14.142 4.368-105.1 32.442-119.928 37.024-2.615 0.808-4.249 3.407-3.841 6.113s2.734 4.707 5.472 4.707h967.831c6.066 0 10.977-4.915 10.977-10.977v-228.095l0.306-79.25c0.031-7.153-3.349-13.891-9.095-18.153z"
        ],
        "attrs": [
          {},
          {},
          {},
          {},
          {}
        ],
        "isMulticolor": false,
        "isMulticolor2": false,
        "grid": 16,
        "tags": [
          "walking_escalator"
        ]
      },
      "attrs": [
        {},
        {},
        {},
        {},
        {}
      ],
      "properties": {
        "order": 140,
        "id": 324,
        "name": "walking_escalator",
        "prevSize": 48,
        "code": 59703
      },
      "setIdx": 0,
      "setId": 1,
      "iconIdx": 0
    },
    {
      "icon": {
        "paths": [
          "M326.72 1.12c-33.28 5.44-60.48 30.24-68.8 62.8-10 38.8 8.4 79.040 44.24 96.8 13.2 6.56 22.16 8.48 38.24 8.4 11.12-0.080 13.84-0.32 20.56-2.16 29.040-7.76 51.92-29.92 60.16-58.24 6-20.8 4.080-41.6-5.52-61.12-11.12-22.48-30.96-38.64-55.2-44.88-9.84-2.48-24.080-3.2-33.68-1.6z",
          "M301.2 187.6c-11.92 1.92-24.72 6.88-35.44 13.76-5.92 3.68-170.64 137.2-176.16 142.64-4.8 4.72-7.92 9.68-9.92 15.76-1.76 5.6-37.92 168.64-38.56 173.84-0.64 5.76 1.2 14.4 4.48 20.8 6.96 13.76 23.44 22.24 38.64 19.92 7.28-1.12 15.6-5.44 21.28-11.2 7.28-7.28 9.76-13.040 14.16-32.72 4.4-20 28.080-127.84 28.48-129.84 0.16-1.040 59.040-49.6 59.6-49.12 0.080 0.080-20.32 90.72-45.36 201.44l-45.44 201.28-54.8 92c-30.16 50.64-55.76 94.16-56.8 96.72-7.28 17.44-7.040 32.96 0.72 49.040 3.040 6.24 4.8 8.64 10.56 14.48 7.92 7.92 14.88 12.16 24.32 14.96 20 5.76 39.76 1.040 55.12-13.12 2.64-2.48 6.4-6.72 8.24-9.36 6.48-9.12 121.36-203.68 126.080-213.52l4.72-9.76 14.24-65.84c7.76-36.16 14.4-65.68 14.72-65.6 0.96 0.48 122.32 133.52 122.32 134.16 0 1.28 36.72 194 38.080 199.68 4.64 20.24 20 37.28 39.040 43.28 26.4 8.32 55.68-4 68.16-28.64 5.68-11.2 7.44-25.92 4.8-39.92-0.64-3.28-3.6-18.64-6.48-34s-9.2-48.64-14-73.92c-4.8-25.28-11.12-58.64-14-74-5.2-27.6-7.6-36.96-10.72-42.080-0.88-1.44-35.36-42.56-76.64-91.36-41.28-48.72-74.96-89.12-74.88-89.6 0.64-3.52 38-167.44 38.24-167.68 0.16-0.16 7.68 14.48 16.64 32.48 12.64 25.2 17.2 33.6 20.080 36.8 4.56 5.040 128.96 91.12 136.88 94.72 15.12 6.8 31.92 3.68 43.12-8 13.84-14.56 14.32-37.040 1.040-51.76-2.48-2.8-21.52-16.32-62.8-44.8l-59.2-40.72-11.6-23.2c-51.44-102.24-74.48-147.28-77.28-151.040-20.56-27.92-52.48-42-83.68-36.96z"
        ],
        "attrs": [
          {},
          {}
        ],
        "width": 606,
        "isMulticolor": false,
        "isMulticolor2": false,
        "grid": 16,
        "tags": [
          "walking"
        ]
      },
      "attrs": [
        {},
        {}
      ],
      "properties": {
        "order": 139,
        "id": 323,
        "name": "walking",
        "prevSize": 48,
        "code": 59704
      },
      "setIdx": 0,
      "setId": 1,
      "iconIdx": 1
    },
    {
      "icon": {
        "paths": [
          "M391.82 877.254l-352-320c-27.494-24.992-27.494-65.516 0-90.51l352-320c27.494-24.992 72.068-24.992 99.562 0s27.494 65.516 0 90.51l-231.822 210.746h674.84c38.88 0 70.4 28.654 70.4 64s-31.52 64-70.4 64h-674.84l231.82 210.746c13.748 12.496 20.62 28.876 20.62 45.254s-6.872 32.758-20.618 45.254c-27.494 24.994-72.068 24.994-99.562 0z"
        ],
        "attrs": [],
        "grid": 16,
        "tags": [
          "arrow-left"
        ]
      },
      "attrs": [],
      "properties": {
        "order": 137,
        "id": 322,
        "name": "arrow-left2",
        "prevSize": 48,
        "code": 59702
      },
      "setIdx": 0,
      "setId": 1,
      "iconIdx": 2
    },
    {
      "icon": {
        "paths": [
          "M1023.424 426.285c-0.372-20.569-2.001-46.576-4.85-77.997-2.864-31.439-6.961-59.535-12.289-84.291-6.096-27.806-19.336-51.237-39.713-70.285-20.377-19.052-44.094-30.096-71.15-33.148-84.578-9.517-212.385-14.28-383.425-14.28-171.043 0-298.852 4.763-383.423 14.28-27.052 3.050-50.675 14.096-70.86 33.148-20.193 19.042-33.336 42.473-39.433 70.285-5.708 24.764-9.999 52.859-12.855 84.291-2.852 31.421-4.473 57.418-4.852 77.997-0.386 20.571-0.574 49.14-0.574 85.714 0 36.571 0.188 65.147 0.576 85.714 0.378 20.583 1.999 46.576 4.852 77.995 2.856 31.437 6.953 59.533 12.287 84.293 6.096 27.814 19.332 51.241 39.713 70.281 20.385 19.048 44.104 30.094 71.148 33.144 84.572 9.527 212.373 14.288 383.423 14.288 171.057 0 298.848-4.761 383.425-14.288 27.056-3.048 50.669-14.096 70.862-33.144 20.193-19.042 33.328-42.481 39.425-70.281 5.712-24.76 9.999-52.857 12.863-84.293 2.848-31.417 4.465-57.424 4.85-77.995 0.382-20.567 0.574-49.144 0.574-85.714 0-36.575-0.19-65.143-0.574-85.714zM714.286 542.857l-292.567 182.851c-5.336 3.809-11.819 5.712-19.434 5.712-5.71 0-11.614-1.529-17.709-4.575-12.569-6.849-18.852-17.521-18.852-31.993v-365.704c0-14.469 6.285-25.14 18.852-31.995 12.955-6.867 25.332-6.483 37.143 1.143l292.569 182.853c11.424 6.465 17.136 16.756 17.136 30.852 0 14.090-5.714 24.386-17.138 30.856z"
        ],
        "attrs": [],
        "grid": 16,
        "tags": [
          "youtube-2"
        ]
      },
      "attrs": [],
      "properties": {
        "order": 136,
        "id": 64,
        "name": "youtube-2",
        "prevSize": 48,
        "code": 59701
      },
      "setIdx": 0,
      "setId": 1,
      "iconIdx": 3
    },
    {
      "icon": {
        "paths": [
          "M631.941 188.109c0 47.896 38.864 86.733 86.709 86.733 47.892 0 86.651-38.837 86.651-86.733 0-47.845-38.758-86.654-86.651-86.654-47.845 0-86.709 38.81-86.709 86.654z",
          "M411.112 141.032c0 56.818 46.097 102.915 102.915 102.915s102.864-46.1 102.864-102.915c0-56.791-46.046-102.84-102.864-102.84s-102.915 46.049-102.915 102.84z",
          "M222.7 188.109c0 47.896 38.813 86.733 86.705 86.733 47.845 0 86.654-38.837 86.654-86.733 0-47.845-38.81-86.654-86.654-86.654-47.892 0-86.705 38.81-86.705 86.654z",
          "M137.37 317.587c36.277 0 65.741-29.385 65.741-65.635 0-36.304-29.464-65.69-65.741-65.69-36.226 0-65.638 29.385-65.638 65.69 0 36.246 29.413 65.635 65.638 65.635z",
          "M890.634 317.587c36.277 0 65.69-29.385 65.69-65.635 0-36.304-29.413-65.69-65.69-65.69s-65.69 29.385-65.69 65.69c0 36.246 29.413 65.635 65.69 65.635z",
          "M38.144 387.867v110.285h119.34v-130.56c0-10.267 1.795-20.173 5.123-29.331h-74.824c-27.457 0-49.64 22.228-49.64 49.606z",
          "M784.125 302.087h-107.984c9.346 15.128 14.732 32.925 14.732 51.934v144.131h158.788v-130.56c0-36.171-29.361-65.505-65.536-65.505z",
          "M591.705 276.292h-155.409c-42.929 0-77.78 34.799-77.78 77.728v144.131h310.968v-144.131c0.003-42.929-34.796-77.728-77.78-77.728z",
          "M940.271 338.261h-74.824c3.379 9.161 5.12 19.063 5.12 29.331v130.56h119.34v-110.285c0.003-27.378-22.282-49.606-49.637-49.606z",
          "M178.398 367.592v130.56h158.788v-144.131c0-19.009 5.386-36.806 14.732-51.934h-107.988c-36.171 0-65.533 29.334-65.533 65.505z",
          "M749.858 630.589c-13.309-9.452-31.051-12.093-47.21-5.335l-156.566 76.909c8.079 11.54 12.67 25.19 13.254 39.287l190.522-110.862zM857.528 641.229c-17.64-25.242-57.347-20.091-95.153 2.324-65.004 38.441-205.52 119.842-205.52 119.842-1.058 3.983-2.43 7.922-4.226 11.773-9.397 20.173-27.194 34.799-48.79 40.161-16.159 3.987-33.372 2.297-48.476-4.727l-109.042-52.122v-18.562l116.49 54.787c9.714 4.543 20.067 5.967 29.993 4.779 1.799-0.212 3.645-0.526 5.437-0.898 0.474-0.106 0.952-0.184 1.376-0.29 11.090-2.748 21.279-8.953 28.935-17.9 3.168-3.751 6.021-7.95 8.185-12.646 2.376-5.041 3.854-10.271 4.646-15.497 2.167-15.183-2.058-30.498-11.353-42.349-5.229-6.653-12.039-12.254-20.224-16.104 0 0-125.15-58.3-166.868-77.728-16.582-7.738-37.229-1.556-60.57 2.505-23.764 4.12-114.586 18.589-114.586 18.589-4.7 1.031-8.554 5.809-8.554 10.643l0.106 210.906c0 4.83 3.908 8.765 8.765 8.765h82.217c0 0 11.67-0.345 18.111 1.031 3.645 0.765 12.725 4.355 12.725 4.355l212.279 82.589c9.291 2.536 18.958 2.642 28.092 0.369 4.386-1.085 8.82-2.43 12.728-4.857 66.376-41.424 271.101-200.977 293.543-218.508 51.538-40.195 45.732-68.39 29.734-91.232z"
        ],
        "attrs": [],
        "grid": 16,
        "tags": [
          "services-2"
        ]
      },
      "attrs": [],
      "properties": {
        "order": 125,
        "id": 62,
        "name": "services-2",
        "prevSize": 48,
        "code": 59697
      },
      "setIdx": 0,
      "setId": 1,
      "iconIdx": 4
    },
    {
      "icon": {
        "paths": [
          "M442.191 838.56c-14.636 19.121-41.312 25.259-63.027 14.872-142.578-67.983-136.441-52.169-138.093-130.775l-80.261-37.297c1.417 65.15-9.677 147.535 76.012 188.375 114.487 54.528 126.29 63.973 163.823 63.973 73.178 0 104.1-50.753 127.942-81.439l-73.885-34.229-12.51 16.521zM766.061 40.448c-48.865 0-94.423 27.617-132.663 74.831l-583.298 275.009c-45.558 51.459-45.558 153.911 0 205.37l583.298 275.005c38.004 47.213 83.565 74.831 132.663 74.831 133.373 0 241.251-202.537 241.251-452.523s-107.878-452.523-241.251-452.523zM539.447 340.006l-397.991 128.887c-13.691 4.485-28.327-3.069-32.577-16.759-4.014-12.749 2.123-26.201 13.926-31.631l453.939-206.787c-16.053 37.769-28.563 80.258-37.297 126.29zM766.061 864.29c-73.885 0-160.048-162.171-160.048-371.319s85.927-371.319 160.048-371.319c73.885 0 160.048 162.171 160.048 371.319s-85.924 371.319-160.048 371.319zM662.903 375.887c-1.417 0-3.069 0.236-4.485 0.471-9.916 29.273-16.053 63.973-17.469 101.27-0.236 4.721-0.236 9.441-0.236 14.401 0 43.906 7.083 84.507 19.121 117.794 0.945 0 1.888 0.236 3.069 0.236 64.679 0 117.084-52.405 117.084-117.084s-52.401-117.088-117.084-117.088z"
        ],
        "attrs": [],
        "grid": 16,
        "tags": [
          "events"
        ]
      },
      "attrs": [],
      "properties": {
        "order": 124,
        "id": 61,
        "name": "events",
        "prevSize": 48,
        "code": 59698
      },
      "setIdx": 0,
      "setId": 1,
      "iconIdx": 5
    },
    {
      "icon": {
        "paths": [
          "M785.285 779.776c-1.731-7.537 0.365-11.302 5.414-16.128 116.439-111.213 157.628-247.323 128.010-403.937-19.606-103.677-73.004-189.836-157.638-252.989-139.428-104.025-290.976-121.655-447.208-43.687-177.033 88.347-266.134 284.409-224.416 479.007 48.104 224.365 261.827 369.019 486.851 329.769 4.977-0.864 11.267 0.154 15.677 2.584 60.368 33.253 120.508 66.915 180.705 100.465 20.623 11.5 41.247 22.979 63.686 35.488-0.662-4.468-0.881-7.089-1.451-9.636-16.439-73.673-32.744-147.367-49.63-220.935zM687.193 359.523c-14.38 127.788-81.565 219.252-196.13 275.616-41.844 20.596-86.712 27.788-132.956 14.701-23.788-6.728-44.524-18.941-63.143-37.028 35.686-45.295 71.223-90.388 107.24-136.113 18.186 15.329 35.663 30.071 53.873 45.418 36.12-47.234 71.834-93.935 107.773-140.923-18.070-13.971-35.407-27.372-53.671-41.492 35.843-45.524 71.202-90.436 107.121-136.055 20.845 13.315 36.925 30.601 48.807 51.777 18.169 32.403 25.184 67.758 21.088 104.1z"
        ],
        "attrs": [],
        "grid": 16,
        "tags": [
          "contact-us-2"
        ]
      },
      "attrs": [],
      "properties": {
        "order": 123,
        "id": 60,
        "name": "contact-us-2",
        "prevSize": 48,
        "code": 59699
      },
      "setIdx": 0,
      "setId": 1,
      "iconIdx": 6
    },
    {
      "icon": {
        "paths": [
          "M890.426 380.245l-363.581-359.438c-12.431-11.394-31.075-11.394-43.506 0l-360.472 348.044c-11.394 12.431-21.753 31.075-21.753 47.65v543.819c0 12.428 4.144 23.822 13.466 33.143 9.322 8.291 20.716 13.469 33.147 13.469h248.603c25.897 0 46.612-20.716 46.612-46.612v-233.066h124.3v233.066c0 25.897 20.716 46.612 46.612 46.612h248.603c25.897 0 46.612-20.716 46.612-46.612v-535.535c0.003-16.575-7.247-33.143-18.644-44.541z"
        ],
        "attrs": [],
        "grid": 16,
        "tags": [
          "home-2"
        ]
      },
      "attrs": [],
      "properties": {
        "order": 122,
        "id": 59,
        "name": "home-2",
        "prevSize": 48,
        "code": 59700
      },
      "setIdx": 0,
      "setId": 1,
      "iconIdx": 7
    },
    {
      "icon": {
        "paths": [
          "M510.723 998.4c-61.945-121.385-123.191-237.271-180.456-355.178-33.857-69.714-66.055-140.995-90.812-214.46-46.708-138.588-1.355-276.111 109.804-352.652 180.958-124.597 424.735-9.165 450.7 212.808 7.653 65.413-5.342 127.311-31.809 185.081-56.62 123.587-116.48 245.634-176.015 367.8-24.941 51.18-52.432 101.055-81.411 156.6zM511.799 503.764c98.816-0.092 177.070-80.401 176.975-181.63-0.092-100.543-79.647-181.948-177.538-181.668-97.754 0.28-177.903 82.459-177.719 182.224 0.188 100.318 79.787 181.166 178.282 181.074z"
        ],
        "attrs": [],
        "grid": 16,
        "tags": [
          "location-2"
        ]
      },
      "attrs": [],
      "properties": {
        "order": 117,
        "id": 57,
        "name": "location-2",
        "prevSize": 48,
        "code": 59668
      },
      "setIdx": 0,
      "setId": 1,
      "iconIdx": 8
    },
    {
      "icon": {
        "paths": [
          "M514.188 18.074c274.067 0 491.039 220.778 491.039 491.039 0 274.067-216.972 491.039-491.039 491.039-270.261 0-491.039-216.972-491.039-491.039 0-270.261 220.778-491.039 491.039-491.039zM156.375 745.117c68.516-95.164 148.453-186.518 270.261-118.002 68.516 38.065 114.196 34.26 186.518-3.806 110.387-64.71 201.745 38.065 262.649 121.808 41.871-64.71 68.516-148.453 68.516-236.005 0-236.005-190.324-430.135-430.135-430.135-236.005 0-430.135 194.133-430.135 430.135 0.003 87.552 26.648 171.295 72.325 236.005zM514.188 204.592c106.581 0 190.324 83.743 190.324 190.324 0 102.775-83.743 186.518-190.324 186.518-102.775 0-186.518-83.743-186.518-186.518 0-106.578 83.743-190.324 186.518-190.324z"
        ],
        "attrs": [],
        "grid": 16,
        "tags": [
          "profile-circle"
        ]
      },
      "attrs": [],
      "properties": {
        "order": 115,
        "id": 56,
        "name": "profile-circle2",
        "prevSize": 48,
        "code": 59670
      },
      "setIdx": 0,
      "setId": 1,
      "iconIdx": 9
    },
    {
      "icon": {
        "paths": [
          "M92.98 214.944c-53.132 0-92.98-36.226-92.98-84.528s39.848-86.942 92.98-86.942h937.78c53.132 0 95.636 38.642 95.636 86.942s-42.506 84.528-95.636 84.528c0.002-0-937.78-0-937.78-0z",
          "M1030.764 425.058c53.132 0 95.636 38.642 95.636 86.942s-42.506 84.528-95.636 84.528h-937.78c-53.132 0-92.98-36.226-92.98-84.528s39.848-86.942 92.98-86.942l937.78-0z",
          "M1030.764 809.058c53.132 0 95.636 36.226 95.636 84.528s-42.506 86.942-95.636 86.942h-937.78c-53.132 0-92.98-38.642-92.98-86.942s39.848-84.528 92.98-84.528h937.78z"
        ],
        "attrs": [],
        "grid": 16,
        "tags": [
          "menu-2"
        ],
        "width": 1126
      },
      "attrs": [],
      "properties": {
        "order": 116,
        "id": 55,
        "name": "menu-22",
        "prevSize": 48,
        "code": 59673
      },
      "setIdx": 0,
      "setId": 1,
      "iconIdx": 10
    },
    {
      "icon": {
        "paths": [
          "M401.865 785.913c-211.821 0-384.15-172.332-384.15-384.154s172.329-384.143 384.15-384.143 384.15 172.322 384.15 384.143-172.329 384.154-384.15 384.154zM401.865 93.966c-169.721 0-307.797 138.069-307.797 307.794s138.076 307.801 307.797 307.801 307.797-138.080 307.797-307.801-138.076-307.794-307.797-307.794z",
          "M673.488 619.457l335.972 335.829-53.979 54.002-335.972-335.829 53.979-54.002z"
        ],
        "attrs": [],
        "grid": 16,
        "tags": [
          "search-2"
        ]
      },
      "attrs": [],
      "properties": {
        "order": 114,
        "id": 54,
        "name": "search-2",
        "prevSize": 48,
        "code": 59689
      },
      "setIdx": 0,
      "setId": 1,
      "iconIdx": 11
    },
    {
      "icon": {
        "paths": [
          "M603.361 287.942h200.765v29.085h-200.765v-29.085z",
          "M972.353 287.942h-114.558v29.085h86.688l22.719 529.459h-526.913l22.716-529.459h86.688v-29.085h-114.555l-25.218 587.633h587.646z",
          "M576.939 384.887c16.572 0 29.99-13.435 29.99-29.996 0-11.199-6.12-20.937-15.203-26.092v-114.715c0-61.768 50.251-112.012 112.026-112.012 61.761 0 112.019 50.244 112.019 112.012v114.715c-9.083 5.154-15.203 14.889-15.203 26.092 0 16.561 13.414 29.996 29.996 29.996 16.565 0 30.010-13.435 30.010-29.996 0-10.861-5.786-20.333-14.408-25.6v-115.207c0-78.64-63.764-142.404-142.408-142.404-78.653 0-142.418 63.764-142.418 142.404v115.207c-8.636 5.263-14.408 14.739-14.408 25.6-0.010 16.561 13.438 29.996 30.007 29.996z",
          "M519.581 545.068h-468.35l-23.272 415.973h514.901l-23.279-415.973zM405.217 621.288v31.648c0 66.157-53.647 119.818-119.822 119.818-66.167 0-119.815-53.661-119.815-119.818v-31.648c-7.257-4.451-12.121-12.418-12.121-21.559 0-13.933 11.302-25.245 25.255-25.245 13.933 0 25.225 11.312 25.225 25.245 0 9.411-5.154 17.616-12.769 21.937v31.27c0 51.975 42.274 94.235 94.225 94.235 51.975 0 94.256-42.257 94.256-94.235v-31.27c-7.636-4.325-12.803-12.527-12.803-21.937 0-13.933 11.288-25.245 25.255-25.245 13.933 0 25.235 11.312 25.235 25.245 0 9.141-4.847 17.108-12.121 21.559z"
        ],
        "attrs": [],
        "grid": 16,
        "tags": [
          "shopping-2"
        ]
      },
      "attrs": [],
      "properties": {
        "order": 113,
        "id": 53,
        "name": "shopping-2",
        "prevSize": 48,
        "code": 59691
      },
      "setIdx": 0,
      "setId": 1,
      "iconIdx": 12
    },
    {
      "icon": {
        "paths": [
          "M513.338 183.278c32.15 3.263 57.382 30.744 57.382 63.751 0 11.069-3.007 21.21-7.97 30.283 192.761 32.887 352.263 230.803 352.263 428.735h-76.51c0-238.404-99.089-328.509-284.522-416.382-0.563 0.611-1.007 1.396-1.594 1.99 160.15 147.633 222.355 200.96 222.355 414.389h-675.83c0-197.932 159.502-395.844 352.263-428.735-4.96-9.069-7.97-19.214-7.97-30.283 0-35.209 28.546-63.751 63.758-63.751 2.202 0.003 4.233-0.212 6.376 0.003zM991.526 731.548v76.503h-956.372v-76.503h956.372z"
        ],
        "attrs": [],
        "grid": 16,
        "tags": [
          "food-2"
        ]
      },
      "attrs": [],
      "properties": {
        "order": 112,
        "id": 52,
        "name": "food-2",
        "prevSize": 48,
        "code": 59692
      },
      "setIdx": 0,
      "setId": 1,
      "iconIdx": 13
    },
    {
      "icon": {
        "paths": [
          "M936.417 871.823h-851.415c-25.119 0-45.483-20.364-45.483-45.483v-644.693c0-25.119 20.364-45.483 45.483-45.483h851.415c25.119 0 45.483 20.364 45.483 45.483v644.693c0.003 25.119-20.361 45.483-45.483 45.483z",
          "M375.659 312.413v384l348.441-192z"
        ],
        "attrs": [],
        "grid": 16,
        "tags": [
          "8"
        ]
      },
      "attrs": [],
      "properties": {
        "order": 135,
        "id": 50,
        "name": "8",
        "prevSize": 48,
        "code": 59693
      },
      "setIdx": 0,
      "setId": 1,
      "iconIdx": 14
    },
    {
      "icon": {
        "paths": [
          "M859.477 409.037c-23.859-31.553-66.956-37.711-96.969-39.25-36.171-2.307-69.263-0.768-107.745 2.307-1.539-4.618-3.079-14.623-1.539-35.403 5.386-61.57 12.312-106.977 17.702-143.148l0.768-3.079c6.158-39.25-15.391-72.342-52.333-82.347-34.632-9.236-80.039 3.079-96.969 43.868-2.307 5.386-4.618 12.312-7.697 20.78-21.548 56.951-70.035 187.013-148.535 233.96v-6.926c0-10.004-7.697-17.702-17.702-17.702h-184.706c-10.004 0-17.702 7.697-17.702 17.702v384.802c0 10.004 7.697 17.702 17.702 17.702h184.706c10.004 0 17.702-7.697 17.702-17.702v-3.847c61.57 16.93 209.333 53.105 314.771 53.105 55.412 0 124.675 0 143.916-86.965 15.391-68.495 35.403-170.083 48.486-240.118 9.233-42.332 4.615-74.653-13.855-97.741zM828.692 499.081c-13.083 70.035-33.092 170.083-48.486 238.578-10.004 44.636-30.013 50.794-99.28 50.794-101.588 0-247.815-36.943-305.534-52.333-5.386-1.539-8.465-5.386-9.236-10.776v-259.355c0-4.618 2.307-9.236 6.158-10.776 103.127-47.715 158.539-195.482 184.706-266.284 3.079-7.697 5.386-14.623 7.697-19.241 5.386-12.312 18.47-18.47 31.553-18.47 3.847 0 7.697 0.768 10.776 1.539 10.776 3.079 22.32 10.776 19.241 31.553l-0.768 3.079c-5.386 36.943-13.083 82.347-18.47 146.224-3.079 36.171 2.307 60.798 15.391 73.882 7.697 7.697 18.47 11.544 30.013 10.776 39.25-3.847 70.803-5.386 105.438-3.079 33.092 2.307 53.873 9.236 63.877 21.548 10.776 12.315 13.083 33.096 6.926 62.341z"
        ],
        "attrs": [],
        "grid": 16,
        "tags": [
          "confirm-hand"
        ]
      },
      "attrs": [],
      "properties": {
        "order": 108,
        "id": 48,
        "name": "confirm-hand",
        "prevSize": 48,
        "code": 59694
      },
      "setIdx": 0,
      "setId": 1,
      "iconIdx": 15
    },
    {
      "icon": {
        "paths": [
          "M84.528 214.943c-48.302 0-84.528-36.226-84.528-84.528s36.226-86.943 84.528-86.943h852.528c48.302 0 86.943 38.642 86.943 86.943s-38.642 84.528-86.943 84.528h-852.528z",
          "M937.057 425.057c48.302 0 86.943 38.642 86.943 86.943s-38.642 84.528-86.943 84.528h-852.528c-48.302 0-84.528-36.226-84.528-84.528s36.226-86.943 84.528-86.943h852.528z",
          "M937.057 809.057c48.302 0 86.943 36.226 86.943 84.528s-38.642 86.943-86.943 86.943h-852.528c-48.302 0-84.528-38.642-84.528-86.943s36.226-84.528 84.528-84.528h852.528z"
        ],
        "attrs": [],
        "grid": 16,
        "tags": [
          "menu"
        ]
      },
      "attrs": [],
      "properties": {
        "order": 106,
        "id": 46,
        "name": "menu",
        "prevSize": 48,
        "code": 59667
      },
      "setIdx": 0,
      "setId": 1,
      "iconIdx": 16
    },
    {
      "icon": {
        "paths": [
          "M510.319 571.692c151.331 0 274.075-122.746 274.075-274.075s-122.746-273.236-274.075-273.236-274.075 122.746-274.075 273.236 122.744 274.075 274.075 274.075zM510.319 95.843c110.975 0 201.774 90.797 201.774 201.774s-90.799 201.772-201.774 201.772-201.774-90.797-201.774-201.774 90.797-201.772 201.774-201.772z",
          "M36.151 999.619h951.699c20.177 0 36.151-15.973 36.151-36.151 0-189.163-153.852-343.856-343.856-343.856h-336.288c-189.163-0-343.856 153.852-343.856 343.856 0 20.177 15.973 36.151 36.151 36.151zM343.856 691.914h336.288c137.878 0 251.376 102.569 269.032 235.402h-874.352c17.655-131.992 131.154-235.402 269.032-235.402z"
        ],
        "attrs": [],
        "grid": 16,
        "tags": [
          "profile"
        ]
      },
      "attrs": [],
      "properties": {
        "order": 96,
        "id": 45,
        "name": "profile",
        "prevSize": 48,
        "code": 59659
      },
      "setIdx": 0,
      "setId": 1,
      "iconIdx": 17
    },
    {
      "icon": {
        "paths": [
          "M1013.44 299.222c7.077-7.077 10.559-15.949 10.559-25.559 0-9.718-3.587-18.484-10.559-25.559-14.152-14.048-37.075-14.048-51.231 0l-450.182 450.182-450.182-450.182c-14.152-14.048-37.075-14.048-51.231 0-14.152 14.152-14.152 37.075 0 51.231l475.85 476.483c14.152 14.152 37.075 14.152 51.231 0l475.739-476.588z"
        ],
        "attrs": [],
        "grid": 16,
        "tags": [
          "arrow-down"
        ]
      },
      "attrs": [],
      "properties": {
        "order": 95,
        "id": 44,
        "name": "arrow-down",
        "prevSize": 48,
        "code": 59657
      },
      "setIdx": 0,
      "setId": 1,
      "iconIdx": 18
    },
    {
      "icon": {
        "paths": [
          "M15.648 691.365c-7.076 7.076-10.562 15.951-10.562 25.562 0 9.714 3.59 18.486 10.562 25.562 14.152 14.048 37.075 14.048 51.227 0l450.185-450.185 450.185 450.185c14.152 14.048 37.075 14.048 51.227 0 14.152-14.152 14.152-37.075 0-51.227l-475.861-476.492c-14.152-14.152-37.075-14.152-51.227 0l-475.747 476.6z"
        ],
        "attrs": [],
        "tags": [
          "arrow-up"
        ],
        "grid": 16
      },
      "attrs": [],
      "properties": {
        "order": 83,
        "id": 0,
        "name": "arrow-up",
        "prevSize": 48,
        "code": 59648
      },
      "setIdx": 0,
      "setId": 1,
      "iconIdx": 19
    },
    {
      "icon": {
        "paths": [
          "M578.355 513.638l409.19-408.986c18.227-18.227 18.227-48.128 0-66.355s-48.128-18.227-66.355 0l-409.19 408.986-408.986-408.986c-18.227-18.227-48.128-18.227-66.355 0s-18.227 48.128 0 66.355l409.19 409.19-409.19 408.986c-18.227 18.227-18.227 47.923 0 66.355 9.216 9.216 21.094 13.722 33.178 13.722s23.962-4.506 33.178-13.722l408.986-409.19 409.19 409.19c9.216 9.216 21.094 13.722 33.178 13.722s23.962-4.506 33.178-13.722c18.227-18.227 18.227-48.128 0-66.355l-409.19-409.19z"
        ],
        "attrs": [],
        "grid": 16,
        "tags": [
          "reject"
        ]
      },
      "attrs": [],
      "properties": {
        "order": 101,
        "id": 43,
        "name": "reject",
        "prevSize": 48,
        "code": 59651
      },
      "setIdx": 0,
      "setId": 1,
      "iconIdx": 20
    },
    {
      "icon": {
        "paths": [
          "M6.815 503.525c-7.84-7.84-11.758-19.81-11.758-27.755 0-7.84 3.813-19.598 11.758-27.435l55.19-55.19c15.785-15.785 39.405-15.785 55.19 0l3.918 4.024 216.733 232.306c7.84 7.946 19.598 7.946 27.541 0l527.533-547.557h4.024c15.785-15.571 39.405-15.571 55.19 0l55.084 55.19c15.785 15.785 15.785 39.405 0 55.19l-630.076 653.91c-7.84 7.84-15.785 11.758-27.755 11.758-11.758 0-19.598-3.813-27.435-11.758l-307.303-330.928-7.84-11.758z"
        ],
        "attrs": [],
        "tags": [
          "accept"
        ],
        "grid": 16
      },
      "attrs": [],
      "properties": {
        "order": 91,
        "id": 14,
        "name": "accept",
        "prevSize": 48,
        "code": 59662
      },
      "setIdx": 0,
      "setId": 1,
      "iconIdx": 21
    },
    {
      "icon": {
        "paths": [
          "M310.156 500.493c0 85.648-69.433 155.078-155.078 155.078s-155.078-69.433-155.078-155.078c0-85.648 69.433-155.078 155.078-155.078s155.078 69.433 155.078 155.078z",
          "M665.706 500.493c0 85.648-69.433 155.078-155.078 155.078s-155.078-69.433-155.078-155.078c0-85.648 69.433-155.078 155.078-155.078s155.078 69.433 155.078 155.078z",
          "M1024 500.493c0 85.648-69.433 155.078-155.078 155.078s-155.078-69.433-155.078-155.078c0-85.648 69.433-155.078 155.078-155.078s155.078 69.433 155.078 155.078z"
        ],
        "attrs": [],
        "tags": [
          "waiting"
        ],
        "grid": 16
      },
      "attrs": [],
      "properties": {
        "order": 40,
        "id": 13,
        "name": "waiting",
        "prevSize": 48,
        "code": 59661
      },
      "setIdx": 0,
      "setId": 1,
      "iconIdx": 22
    },
    {
      "icon": {
        "paths": [
          "M1023.943 512c0-282.261-229.682-512.049-512.049-512.049s-511.943 229.788-511.943 512.049c0 149.067 64.11 283.533 166.204 377.16l-0.423 0.423 16.503 13.964c1.058 0.952 2.327 1.587 3.387 2.541 8.782 7.301 17.984 14.176 27.297 20.948 2.962 2.221 6.029 4.337 9.099 6.56 10.051 6.772 20.207 13.33 30.576 19.467 2.327 1.375 4.548 2.644 6.772 4.019 11.426 6.452 23.063 12.589 35.018 18.198 0.952 0.423 1.798 0.846 2.644 1.269 38.931 17.984 80.404 31.316 123.78 39.146 1.163 0.212 2.327 0.317 3.49 0.529 13.435 2.327 27.082 4.233 40.944 5.394 1.587 0.212 3.387 0.317 4.974 0.423 13.753 1.058 27.611 1.798 41.684 1.798 13.964 0 27.72-0.74 41.367-1.798 1.798-0.212 3.49-0.317 5.183-0.423 13.753-1.269 27.191-3.067 40.521-5.394 1.163-0.212 2.327-0.423 3.596-0.635 42.742-7.618 83.58-20.63 121.982-38.299 1.481-0.635 2.856-1.269 4.233-1.904 11.532-5.394 22.746-11.214 33.749-17.457 2.75-1.587 5.394-3.067 8.147-4.76 10.051-5.926 19.89-12.060 29.518-18.621 3.49-2.327 6.772-4.865 10.157-7.301 8.147-5.82 16.291-11.849 24.015-18.304 1.692-1.375 3.702-2.644 5.394-4.019l17.034-14.282-0.529-0.423c103.044-93.31 167.685-228.305 167.685-378.218v0zM37.19 512c0-261.844 212.965-474.704 474.81-474.704s474.704 212.86 474.704 474.704c0 141.132-61.891 267.873-159.961 354.943-5.394-3.702-10.897-7.195-16.611-10.051l-157.634-78.817c-14.070-7.089-22.852-21.265-22.852-37.133v-55.119c3.596-4.442 7.512-9.522 11.426-15.236 20.419-28.777 36.816-60.937 48.771-95.32 23.592-11.214 38.828-34.701 38.828-61.257v-66.016c0-16.082-5.926-31.739-16.503-44.117v-86.858c0.952-9.628 4.337-64.218-35.124-109.181-34.277-39.146-89.82-59.033-165.147-59.033-75.218 0-130.869 19.89-165.147 59.033-39.46 44.963-35.97 99.553-35.124 109.181v86.858c-10.58 12.272-16.503 28.037-16.503 44.117v66.122c0 20.525 9.205 39.674 24.967 52.581 15.128 59.139 46.126 103.784 57.658 118.915v53.85c0 15.236-8.358 29.198-21.582 36.499l-147.266 80.301c-4.657 2.541-9.31 5.503-13.964 8.887-96.698-86.964-157.74-212.965-157.74-353.145v0zM790.559 896.141c-6.56 4.76-13.224 9.31-19.89 13.753-3.067 2.010-6.135 4.019-9.31 6.029-8.782 5.394-17.775 10.58-26.874 15.445-2.010 0.952-4.019 2.010-6.029 3.067-21.054 10.685-42.742 19.996-64.959 27.505-0.74 0.317-1.587 0.529-2.327 0.846-11.637 3.913-23.486 7.301-35.441 10.262h-0.106c-12.060 2.962-24.227 5.394-36.499 7.512-0.423 0-0.74 0.106-0.952 0.212-11.532 1.798-23.275 3.173-34.912 4.233-2.115 0.212-4.233 0.317-6.243 0.423-11.532 0.846-23.169 1.375-34.806 1.375-11.849 0-23.592-0.529-35.229-1.481-2.010-0.106-4.019-0.317-6.029-0.423-11.849-0.952-23.592-2.433-35.229-4.233l-1.587-0.317c-24.65-4.233-48.876-10.157-72.471-18.089-0.74-0.317-1.481-0.529-2.115-0.846-11.743-3.913-23.275-8.358-34.701-13.33-0.106 0-0.212 0-0.212-0.106-10.685-4.657-21.265-9.734-31.739-15.128-1.375-0.74-2.75-1.375-4.128-2.115-9.522-5.080-18.83-10.58-28.037-16.291-2.75-1.692-5.394-3.49-8.041-5.288-8.464-5.394-16.823-11.214-24.967-17.352-0.846-0.635-1.587-1.269-2.433-1.904l1.692-0.952 147.266-80.301c25.284-13.859 41.047-40.306 41.047-69.192v-67.074l-4.233-5.183c-0.423-0.423-40.626-49.408-55.86-115.742l-1.587-7.407-6.349-4.128c-8.993-5.82-14.387-15.445-14.387-25.919v-66.016c0-8.676 3.702-16.714 10.368-22.852l6.243-5.503v-103.678l-0.212-2.433c0-0.423-5.503-45.28 26.025-81.25 26.977-30.681 73.103-46.232 137.11-46.232 63.795 0 109.816 15.445 136.689 45.915 31.527 35.547 26.345 81.147 26.345 81.567l-0.529 106.325 6.243 5.503c6.666 6.029 10.368 14.070 10.368 22.746v66.016c0 13.224-9.099 25.39-22.005 29.412l-9.31 2.856-2.962 9.31c-11.003 34.066-26.659 65.593-46.444 93.628-4.865 6.875-9.628 13.012-13.753 17.669l-4.548 5.183v68.872c0 30.047 16.611 57.023 43.482 70.459l157.634 78.817c0.952 0.423 2.010 0.952 2.962 1.587-2.010 1.375-4.019 2.75-6.029 4.233v0zM790.559 896.141"
        ],
        "attrs": [
          {
            "strokeLinejoin": "miter",
            "strokeLinecap": "butt",
            "strokeMiterlimit": "10",
            "strokeWidth": 22.5265664
          }
        ],
        "tags": [
          "profile-circle"
        ],
        "grid": 16
      },
      "attrs": [
        {
          "strokeLinejoin": "miter",
          "strokeLinecap": "butt",
          "strokeMiterlimit": "10",
          "strokeWidth": 22.5265664
        }
      ],
      "properties": {
        "order": 128,
        "id": 42,
        "name": "profile-circle",
        "prevSize": 48,
        "code": 59690
      },
      "setIdx": 0,
      "setId": 1,
      "iconIdx": 23
    },
    {
      "icon": {
        "paths": [
          "M1016.079 972.962l-248.84-248.84c66.721-76.792 107.216-176.873 107.216-286.291 0-240.972-195.967-436.729-436.729-436.729-240.867 0-436.624 195.967-436.624 436.624s195.967 436.624 436.624 436.624c109.418 0 209.604-40.39 286.291-107.216l248.84 248.84c5.876 5.876 13.847 9.127 21.611 9.127s15.633-2.937 21.611-9.127c11.854-11.645 11.854-31.158 0-43.012v0zM62.158 437.725c0-207.087 168.48-375.357 375.357-375.357 207.087 0 375.357 168.48 375.357 375.357s-168.27 375.567-375.357 375.567c-206.877 0-375.357-168.48-375.357-375.567v0zM62.158 437.725"
        ],
        "attrs": [
          {
            "strokeLinejoin": "miter",
            "strokeLinecap": "butt",
            "strokeMiterlimit": "10",
            "strokeWidth": 16.6235136
          }
        ],
        "tags": [
          "store-search"
        ],
        "grid": 16
      },
      "attrs": [
        {
          "strokeLinejoin": "miter",
          "strokeLinecap": "butt",
          "strokeMiterlimit": "10",
          "strokeWidth": 16.6235136
        }
      ],
      "properties": {
        "order": 129,
        "id": 40,
        "name": "store-search",
        "prevSize": 48,
        "code": 59688
      },
      "setIdx": 0,
      "setId": 1,
      "iconIdx": 24
    },
    {
      "icon": {
        "paths": [
          "M679.285 490.336l-212.62-154.499c-7.821-5.708-18.177-6.659-26.629-2.219-8.666 4.332-13.949 13.209-13.949 22.826v308.997c0 9.617 5.283 18.494 13.949 22.932 3.698 1.796 7.712 2.641 11.624 2.641 5.177 0 10.462-1.69 14.899-4.968l212.62-154.393c6.867-4.968 10.673-12.469 10.673-20.607 0.106-8.243-3.909-15.747-10.568-20.713v0z",
          "M510.415-1.585c-282.896 0-512 229.107-512 512s229.107 512 512 512c282.896 0 512-229.212 512-512 0.211-282.896-229.107-512-512-512v0zM510.415 936.922c-235.446 0-426.507-190.85-426.507-426.507 0-235.446 190.956-426.507 426.507-426.507 235.657 0 426.402 191.062 426.402 426.507 0.106 235.657-190.745 426.507-426.402 426.507v0z"
        ],
        "attrs": [],
        "tags": [
          "play"
        ],
        "grid": 16
      },
      "attrs": [],
      "properties": {
        "order": 57,
        "id": 39,
        "name": "play",
        "prevSize": 48,
        "code": 59687
      },
      "setIdx": 0,
      "setId": 1,
      "iconIdx": 25
    },
    {
      "icon": {
        "paths": [
          "M512-0.524c-207.846 0-376.936 169.090-376.936 376.936 0 54.193 11.133 106.074 32.978 153.968 94.206 206.163 274.957 423.99 328.101 485.743 3.99 4.623 9.768 7.353 15.858 7.353s11.973-2.625 15.965-7.353c53.143-61.861 233.891-279.577 328.101-485.848 21.95-47.891 32.978-99.669 32.978-153.968 0-207.741-169.195-376.831-377.041-376.831v0zM512 572.283c-107.967 0-195.873-87.906-195.873-195.873s87.906-195.873 195.873-195.873c107.967 0 195.873 87.906 195.873 195.873s-87.906 195.873-195.873 195.873v0z"
        ],
        "attrs": [],
        "tags": [
          "location"
        ],
        "grid": 16
      },
      "attrs": [],
      "properties": {
        "order": 55,
        "id": 37,
        "name": "location",
        "prevSize": 48,
        "code": 59685
      },
      "setIdx": 0,
      "setId": 1,
      "iconIdx": 26
    },
    {
      "icon": {
        "paths": [
          "M997.308 807.039l-158.156-158.259c-31.484-31.379-83.606-30.431-116.248 2.211l-79.708 79.708c-5.056-2.737-10.214-5.687-15.691-8.74-50.33-27.905-119.195-66.126-191.637-138.57-72.655-72.655-110.982-141.728-138.886-192.061-3.053-5.263-5.793-10.424-8.527-15.372l79.708-79.708c32.642-32.642 33.589-84.764 2.105-116.248l-158.156-158.156c-31.379-31.484-83.606-30.431-116.248 2.211l-44.54 44.751 1.158 1.263c-14.951 19.059-27.376 41.066-36.642 64.757-8.527 22.638-14.004 44.119-16.32 65.705-20.954 173.107 58.228 331.26 272.822 546.062 296.829 296.724 535.954 274.401 546.273 273.243 22.428-2.632 44.014-8.003 65.915-16.533 23.481-9.161 45.487-21.691 64.441-36.539l0.947 0.842 45.277-44.224c32.537-32.747 33.589-84.869 2.105-116.353v0z"
        ],
        "attrs": [],
        "tags": [
          "phone"
        ],
        "grid": 16
      },
      "attrs": [],
      "properties": {
        "order": 54,
        "id": 36,
        "name": "phone",
        "prevSize": 48,
        "code": 59684
      },
      "setIdx": 0,
      "setId": 1,
      "iconIdx": 27
    },
    {
      "icon": {
        "paths": [
          "M511.159 648.883l-126.79-111.126-362.186 310.354c13.141 12.511 30.7 19.976 50.36 19.976h876.919c19.553 0 37.111-7.465 50.252-19.976l-362.186-310.354-126.372 111.126z",
          "M999.715 156.649c-12.826-12.511-30.7-19.976-50.252-19.976h-876.919c-19.345 0-37.219 7.465-50.36 19.976l488.976 418.958 488.556-418.958z",
          "M-1.051 200.91v607.567l353.565-300.471-353.565-307.096z",
          "M669.384 508.111l353.565 300.471v-607.988l-353.565 307.516z"
        ],
        "attrs": [],
        "tags": [
          "mail"
        ],
        "grid": 16
      },
      "attrs": [],
      "properties": {
        "order": 53,
        "id": 35,
        "name": "mail2",
        "prevSize": 48,
        "code": 59683
      },
      "setIdx": 0,
      "setId": 1,
      "iconIdx": 28
    },
    {
      "icon": {
        "paths": [
          "M399.142 367.282c0 9.537-7.738 17.28-17.28 17.28s-17.28-7.738-17.28-17.28c0-9.537 7.738-17.28 17.28-17.28s17.28 7.738 17.28 17.28z",
          "M475.281 367.282c0 9.537-7.738 17.28-17.28 17.28s-17.28-7.738-17.28-17.28c0-9.537 7.738-17.28 17.28-17.28 9.722 0 17.28 7.738 17.28 17.28z",
          "M551.599 367.282c0 9.537-7.738 17.28-17.28 17.28s-17.28-7.738-17.28-17.28c0-9.537 7.738-17.28 17.28-17.28s17.28 7.738 17.28 17.28z",
          "M627.917 367.282c0 9.537-7.738 17.28-17.28 17.28s-17.28-7.738-17.28-17.28c0-9.537 7.738-17.28 17.28-17.28s17.28 7.738 17.28 17.28z",
          "M399.142 431.543c0 9.537-7.738 17.28-17.28 17.28s-17.28-7.738-17.28-17.28c0-9.537 7.738-17.28 17.28-17.28s17.28 7.738 17.28 17.28z",
          "M475.281 431.543c0 9.537-7.738 17.28-17.28 17.28s-17.28-7.738-17.28-17.28c0-9.537 7.738-17.28 17.28-17.28 9.722 0 17.28 7.738 17.28 17.28z",
          "M551.599 431.543c0 9.537-7.738 17.28-17.28 17.28s-17.28-7.738-17.28-17.28c0-9.537 7.738-17.28 17.28-17.28s17.28 7.738 17.28 17.28z",
          "M627.917 431.543c0 9.537-7.738 17.28-17.28 17.28s-17.28-7.738-17.28-17.28c0-9.537 7.738-17.28 17.28-17.28s17.28 7.738 17.28 17.28z",
          "M399.142 495.8c0 9.537-7.738 17.28-17.28 17.28s-17.28-7.738-17.28-17.28c0-9.537 7.738-17.28 17.28-17.28s17.28 7.738 17.28 17.28z",
          "M475.281 495.8c0 9.537-7.738 17.28-17.28 17.28s-17.28-7.738-17.28-17.28c0-9.537 7.738-17.28 17.28-17.28 9.722 0 17.28 7.738 17.28 17.28z",
          "M551.599 495.8c0 9.537-7.738 17.28-17.28 17.28s-17.28-7.738-17.28-17.28c0-9.537 7.738-17.28 17.28-17.28s17.28 7.738 17.28 17.28z",
          "M627.917 495.8c0 9.537-7.738 17.28-17.28 17.28s-17.28-7.738-17.28-17.28c0-9.537 7.738-17.28 17.28-17.28s17.28 7.738 17.28 17.28z",
          "M399.142 560.056c0 9.537-7.738 17.28-17.28 17.28s-17.28-7.738-17.28-17.28c0-9.537 7.738-17.28 17.28-17.28 9.537 0.18 17.28 7.738 17.28 17.28z",
          "M475.281 560.056c0 9.537-7.738 17.28-17.28 17.28s-17.28-7.738-17.28-17.28c0-9.537 7.738-17.28 17.28-17.28 9.722 0.18 17.28 7.738 17.28 17.28z",
          "M551.599 560.056c0 9.537-7.738 17.28-17.28 17.28s-17.28-7.738-17.28-17.28c0-9.537 7.738-17.28 17.28-17.28 9.537 0.18 17.28 7.738 17.28 17.28z",
          "M627.917 560.056c0 9.537-7.738 17.28-17.28 17.28s-17.28-7.738-17.28-17.28c0-9.537 7.738-17.28 17.28-17.28 9.537 0.18 17.28 7.738 17.28 17.28z",
          "M776.054 462.504l118.436-112.318h-54.179l-99.716 94.138c-8.998 8.462-13.501 14.761-13.501 18.72 0 4.499 4.679 10.802 13.861 19.080l103.14 95.937h53.46l-121.495-115.557zM725.658 350.002h-45.357v227.874h45.357v-227.874zM1145.048 352.161h-43.378v183.957l-104.58-160.374c-6.298-9.722-10.977-15.84-14.041-18.54-5.763-4.679-14.221-7.023-25.558-7.023-24.663 0-36.899 11.162-36.899 33.3v195.114h43.198v-183.417l105.475 160.559c6.478 10.257 11.162 16.38 13.681 18.54 5.938 4.859 14.221 7.203 25.018 7.203 11.522 0 20.699-3.239 27.542-9.537 6.298-5.579 9.362-12.781 9.362-21.419v-198.358zM1388.583 350.002h-132.117c-20.159 0-35.64 3.419-46.261 10.082-15.121 9.362-22.679 22.139-22.679 37.979v35.64c0 14.401 7.023 25.738 20.879 34.2 12.781 7.558 29.157 11.342 48.961 11.342h48.056c25.198 0 37.799 7.738 37.799 23.223 0 16.56-1.080 26.822-3.239 30.776-4.679 7.558-16.74 11.342-36 11.342h-116.277v33.3h129.598c21.959 0 39.059-4.139 51.66-12.601 12.601-8.278 18.9-20.339 18.9-36v-36c0-14.941-6.118-26.458-18.54-34.56-12.241-8.278-28.802-12.241-49.321-12.241h-48.056c-13.321 0-23.038-1.8-28.981-5.219-7.203-4.323-10.622-10.622-10.622-18.54 0-15.121 1.44-24.663 4.139-28.981 4.679-7.023 16.56-10.437 35.64-10.437h116.457v-33.3z"
        ],
        "attrs": [],
        "tags": [
          "kns"
        ],
        "grid": 16
      },
      "attrs": [],
      "properties": {
        "order": 75,
        "id": 34,
        "name": "kns",
        "prevSize": 48,
        "code": 59682
      },
      "setIdx": 0,
      "setId": 1,
      "iconIdx": 29
    },
    {
      "icon": {
        "paths": [
          "M1022.419 342.247c0-152.705-123.763-276.468-276.574-276.468-99.769 0-186.803 52.937-235.426 132.078-48.62-79.141-135.76-132.078-235.529-132.078-152.705 0-276.468 123.763-276.468 276.468 0 83.142 36.833 157.545 94.929 208.167l391.814 391.814c6.736 6.736 15.785 10.419 25.257 10.419s18.523-3.788 25.257-10.419l391.814-391.814c58.092-50.619 94.929-125.026 94.929-208.167z"
        ],
        "attrs": [],
        "tags": [
          "heart"
        ],
        "grid": 16
      },
      "attrs": [],
      "properties": {
        "order": 88,
        "id": 33,
        "name": "heart",
        "prevSize": 48,
        "code": 59680
      },
      "setIdx": 0,
      "setId": 1,
      "iconIdx": 30
    },
    {
      "icon": {
        "paths": [
          "M940.918 153.906c-53.641-53.641-124.568-82.974-200.315-82.974s-146.988 29.545-200.527 83.187l-28.076 27.971-28.498-28.39c-53.641-53.641-124.987-83.393-200.839-83.393-75.538 0-146.778 29.545-200.105 82.872-53.537 53.641-83.079 124.882-82.872 200.629 0 75.747 29.755 146.778 83.393 200.315l407.65 407.65c5.659 5.659 13.2 8.696 20.64 8.696s14.981-2.828 20.64-8.484l408.488-406.917c53.641-53.641 83.187-124.777 83.187-200.629 0.209-75.747-29.126-146.883-82.768-200.527v0zM899.22 513.571l-387.849 386.382-387.116-387.011c-42.536-42.536-66.004-99.005-66.004-159.141s23.258-116.607 65.794-158.934c42.326-42.326 98.796-65.794 158.722-65.794 60.135 0 116.814 23.468 159.35 66.004l49.033 49.033c11.524 11.524 29.964 11.524 41.486 0l48.614-48.614c42.536-42.536 99.215-66.004 159.141-66.004s116.395 23.468 158.934 65.794c42.536 42.536 65.794 99.005 65.794 159.141 0.105 60.135-23.363 116.607-65.899 159.141v0z"
        ],
        "attrs": [],
        "tags": [
          "heart-line"
        ],
        "grid": 16
      },
      "attrs": [],
      "properties": {
        "order": 87,
        "id": 32,
        "name": "heart-line",
        "prevSize": 48,
        "code": 59681
      },
      "setIdx": 0,
      "setId": 1,
      "iconIdx": 31
    },
    {
      "icon": {
        "paths": [
          "M325.84-0.043c34.348 0 68.59 0 102.938 0 0 88.203 0 176.406 0 264.503 103.892-37.53 208.635-76.966 313.268-114.917 0 28.304 0 56.717 0 85.024-104.74 37.53-208.635 75.694-313.268 113.328 0 14.629 0 29.258 0 43.784 104.634-37.846 209.376-77.39 313.268-114.917 0 28.095 0 56.293 0 84.385-103.786 38.588-208.846 75.906-313.268 113.963 0 146.192 0 292.383 0 438.469 109.618-14.099 188.492-64.775 248.6-129.549 30.321-32.546 54.597-71.030 73.677-115.556 19.083-44.42 31.274-96.261 31.804-157.429 35.62 0 71.134 0 106.756 0 0 5.405 0 10.813 0 16.221-3.604 83.752-23.429 153.402-53.219 212.662-29.791 59.154-68.484 108.876-114.599 151.282-45.373 41.664-100.288 76.33-164.851 100.924-63.185 24.065-143.754 37.846-231.109 29.258 0-169.517 0-339.031 0-508.649-64.242 22.687-127.535 46.221-191.459 69.12 0-27.247 0-54.491 0-81.841 64.033-23.429 128.277-46.539 191.459-70.71 0-14.526 0-28.943 0-43.466-63.715 21.839-127.639 46.221-191.459 68.908 0-27.138 0-54.279 0-81.417 63.609-23.959 128.383-46.645 191.459-71.134 0-100.818 0-201.531 0-302.243z"
        ],
        "attrs": [],
        "tags": [
          "tl"
        ],
        "grid": 16
      },
      "attrs": [],
      "properties": {
        "order": 49,
        "id": 31,
        "name": "tl",
        "prevSize": 48,
        "code": 59679
      },
      "setIdx": 0,
      "setId": 1,
      "iconIdx": 32
    },
    {
      "icon": {
        "paths": [
          "M1016.079 972.962l-248.84-248.84c66.721-76.792 107.216-176.873 107.216-286.291 0-240.972-195.967-436.729-436.729-436.729-240.867 0-436.624 195.967-436.624 436.624s195.967 436.624 436.624 436.624c109.418 0 209.604-40.39 286.291-107.216l248.84 248.84c5.876 5.876 13.847 9.127 21.611 9.127s15.633-2.937 21.611-9.127c11.854-11.645 11.854-31.158 0-43.012v0zM62.158 437.725c0-207.087 168.48-375.357 375.357-375.357 207.087 0 375.357 168.48 375.357 375.357s-168.27 375.567-375.357 375.567c-206.877 0-375.357-168.48-375.357-375.567v0z"
        ],
        "attrs": [
          {
            "strokeLinejoin": "miter",
            "strokeLinecap": "butt",
            "strokeMiterlimit": "10",
            "strokeWidth": 16.6235136
          }
        ],
        "tags": [
          "home-search"
        ],
        "grid": 16
      },
      "attrs": [
        {
          "strokeLinejoin": "miter",
          "strokeLinecap": "butt",
          "strokeMiterlimit": "10",
          "strokeWidth": 16.6235136
        }
      ],
      "properties": {
        "order": 130,
        "id": 30,
        "name": "home-search",
        "prevSize": 48,
        "code": 59678
      },
      "setIdx": 0,
      "setId": 1,
      "iconIdx": 33
    },
    {
      "icon": {
        "paths": [
          "M906.595 880.386l-58.649-660.262c-1.268-14.688-13.634-25.784-28.111-25.784h-120.577c-1.69-110.115-91.726-199.094-202.266-199.094s-200.573 88.979-202.266 199.094h-120.682c-14.688 0-26.843 11.096-28.111 25.784l-58.544 660.262c0 0.845-0.211 1.69-0.211 2.538 0 75.134 68.9 136.321 153.653 136.321h512.211c84.859 0 153.759-61.188 153.759-136.321 0-0.845 0-1.69-0.211-2.538v0zM496.995 51.782c79.362 0 144.036 63.618 145.727 142.557h-291.454c1.69-78.94 66.365-142.557 145.727-142.557v0zM753.048 962.707h-512.211c-53.156 0-96.272-35.19-97.117-78.517l56.114-632.999h94.687v85.81c0 15.747 12.575 28.32 28.32 28.32s28.32-12.575 28.32-28.32v-85.81h291.665v85.81c0 15.747 12.575 28.32 28.32 28.32s28.32-12.575 28.32-28.32v-85.81h94.687l56.325 632.999c-1.057 43.327-44.384 78.517-97.434 78.517v0z"
        ],
        "attrs": [],
        "tags": [
          "stores"
        ],
        "grid": 16
      },
      "attrs": [],
      "properties": {
        "order": 13,
        "id": 29,
        "name": "stores",
        "prevSize": 48,
        "code": 59677
      },
      "setIdx": 0,
      "setId": 1,
      "iconIdx": 34
    },
    {
      "icon": {
        "paths": [
          "M632.396 79.917c-216.145-0.315-391.604 174.617-392.023 390.657-0.21 152.174 87.78 290.712 225.692 355.21h-381.745c-25.903 0-46.878-20.975-46.878-46.878s20.975-46.878 46.878-46.878h84.32c39.956 0 72.365-32.406 72.365-72.365s-32.406-72.365-72.365-72.365h-3.358c-0.944 0-102.986-1.887-129.102-67.224-3.879-9.649-14.786-14.37-24.435-10.488s-14.37 14.786-10.488 24.435c35.237 88.409 158.258 90.614 163.5 90.821v0h3.358c19.193 0 34.818 15.628 34.818 34.818s-15.628 34.818-34.818 34.818h-83.796c-46.669 0-84.425 37.859-84.425 84.425s37.754 84.425 84.425 84.425h547.971c216.358 0 391.708-175.456 391.604-391.708 0.105-216.358-175.246-391.604-391.496-391.708zM632.396 825.787c-195.592 0-354.162-158.57-354.162-354.162s158.57-354.162 354.162-354.162c195.592 0 354.162 158.57 354.162 354.162v0c-0.21 195.487-158.674 353.952-354.162 354.162v0z",
          "M632.396 400.728c68.59 0 124.276-55.584 124.276-124.276 0-68.59-55.584-124.276-124.276-124.276-68.59 0-124.276 55.584-124.276 124.276 0.105 68.59 55.688 124.171 124.276 124.276zM632.396 189.721c47.927 0 86.732 38.805 86.732 86.732s-38.805 86.732-86.732 86.732-86.732-38.805-86.732-86.732v0c0.21-47.717 39.012-86.312 86.732-86.312v-0.419z",
          "M632.396 542.624c-68.59-0.315-124.488 55.059-124.8 123.649s55.059 124.488 123.649 124.8c68.59 0.315 124.488-55.059 124.8-123.649 0-0.21 0-0.419 0-0.524-0.105-68.378-55.374-123.856-123.649-124.276zM632.396 753.527c-47.927 0.315-86.941-38.278-87.256-86.103-0.315-47.927 38.278-86.941 86.103-87.256 47.927-0.315 86.941 38.278 87.256 86.103 0 0.21 0 0.419 0 0.524-0.21 47.507-38.593 85.998-86.103 86.312v0.419z",
          "M561.395 471.622c0-68.59-55.584-124.276-124.276-124.276s-124.276 55.584-124.276 124.276c0 68.59 55.479 124.171 124.066 124.276 68.692 0 124.381-55.584 124.488-124.276zM437.014 558.354c-47.927-0.105-86.627-39.012-86.522-86.941s39.012-86.627 86.941-86.522c47.822 0.105 86.522 38.91 86.522 86.732 0 47.927-38.805 86.732-86.732 86.732-0.105 0-0.21 0-0.21 0z",
          "M703.293 471.622c0 68.59 55.584 124.276 124.276 124.276 68.59 0 124.276-55.584 124.276-124.276 0-68.59-55.584-124.276-124.276-124.276v0c-68.59 0.21-124.171 55.688-124.276 124.276zM914.301 471.622c0 47.927-38.805 86.732-86.732 86.732s-86.732-38.805-86.732-86.732c0-47.927 38.805-86.732 86.732-86.732v0c47.822 0 86.732 38.91 86.732 86.732z",
          "M577.547 471.622c0 30.309 24.543 54.85 54.85 54.85s54.85-24.543 54.85-54.85c0-30.309-24.543-54.85-54.85-54.85-30.309 0.105-54.85 24.645-54.85 54.85v0zM649.597 471.622c0 9.544-7.762 17.305-17.305 17.305s-17.305-7.762-17.305-17.305c0-9.544 7.762-17.305 17.305-17.305v0c9.649 0.105 17.305 7.762 17.305 17.305z"
        ],
        "attrs": [],
        "tags": [
          "cinema"
        ],
        "grid": 16
      },
      "attrs": [],
      "properties": {
        "order": 12,
        "id": 28,
        "name": "cinema",
        "prevSize": 48,
        "code": 59676
      },
      "setIdx": 0,
      "setId": 1,
      "iconIdx": 35
    },
    {
      "icon": {
        "paths": [
          "M486.582-0.526c-226.228 0-410.442 184.217-410.442 410.442 0 25.731 2.31 51.776 7.248 77.089 0.21 1.47 1.050 5.985 2.835 13.758 6.198 27.728 15.438 54.929 27.518 80.974 44.216 104.080 141.471 264.036 354.883 435.332 5.355 4.305 11.763 6.405 18.275 6.405 6.405 0 12.918-2.1 18.275-6.405 213.202-171.299 310.667-331.252 354.883-435.332 11.973-25.941 21.215-53.039 27.518-80.974 1.68-7.773 2.625-12.288 2.835-13.758 4.725-25.311 7.248-51.359 7.248-77.089-0.63-226.228-184.742-410.442-411.072-410.442v0zM832.645 476.922c0 0.42-0.21 0.84-0.21 1.26-0.21 1.050-0.84 4.305-1.89 9.243v0.42c-5.355 24.051-13.338 47.474-23.841 69.946-0.21 0.21-0.21 0.63-0.42 0.84-40.121 95.152-128.13 240.195-319.595 398.469-191.569-158.168-279.579-303.314-319.7-398.364-0.21-0.21-0.21-0.63-0.42-0.84-10.293-22.265-18.275-45.896-23.841-69.946v-0.42c-1.26-4.938-1.68-8.193-1.89-9.243 0-0.42-0.21-0.84-0.21-1.47-4.305-22.055-6.405-44.426-6.405-67.006 0-194.297 158.168-352.468 352.468-352.468s352.468 158.168 352.468 352.468c-0.105 22.685-2.205 45.161-6.513 67.111v0z",
          "M486.582 153.862c-143.571 0-260.568 117-260.568 260.568s117 260.568 260.568 260.568c143.571 0 260.568-117 260.568-260.568 0.105-143.571-116.895-260.568-260.568-260.568v0zM486.582 617.132c-111.852 0-202.702-91.057-202.702-202.702s91.057-202.702 202.702-202.702c111.642 0 202.702 91.057 202.702 202.702s-90.847 202.702-202.702 202.702v0z"
        ],
        "attrs": [],
        "tags": [
          "mall-map"
        ],
        "grid": 16
      },
      "attrs": [],
      "properties": {
        "order": 11,
        "id": 27,
        "name": "mall-map",
        "prevSize": 48,
        "code": 59675
      },
      "setIdx": 0,
      "setId": 1,
      "iconIdx": 36
    },
    {
      "icon": {
        "paths": [
          "M1016.658 9.863c-8.509-8.509-21.645-10.927-32.572-6.093l-964.973 422.911c-10.297 4.625-17.020 14.397-17.653 25.531s5.252 21.645 14.814 27.11l336.44 190.809 199.74 340.011c5.252 8.932 15.024 14.604 25.321 14.604h1.786c11.138-0.63 20.699-7.461 25.321-17.653l418.079-964.658c4.832-11.138 2.416-24.061-6.305-32.572v0zM863.149 121.031l-493.836 490.577-272.766-154.56 766.599-336.019zM573.888 930.184l-162.651-277.073 496.672-493.415-334.021 770.488z"
        ],
        "attrs": [],
        "tags": [
          "transportation"
        ],
        "grid": 16
      },
      "attrs": [],
      "properties": {
        "order": 2,
        "id": 26,
        "name": "transportation",
        "prevSize": 48,
        "code": 59674
      },
      "setIdx": 0,
      "setId": 1,
      "iconIdx": 37
    },
    {
      "icon": {
        "paths": [
          "M751.691-2.248l-132.882-0.105c-149.219 0-245.658 98.955-245.658 252.047v116.234h-133.51c-11.518 0-20.838 9.32-20.838 20.838v168.379c0 11.518 9.32 20.838 20.838 20.838h133.51v424.825c0 11.518 9.32 20.838 20.943 20.838h174.14c11.518 0 20.943-9.32 20.943-20.838v-424.825h156.128c11.518 0 20.838-9.32 20.838-20.838l0.105-168.379c0-5.548-2.198-10.786-6.179-14.764-3.873-3.873-9.215-6.072-14.764-6.072h-156.128v-98.536c0-47.333 11.309-71.416 72.987-71.416h89.425c11.518 0 20.838-9.32 20.838-20.838v-156.445c0-11.518-9.32-20.838-20.734-20.943v0z"
        ],
        "attrs": [],
        "tags": [
          "facebook"
        ],
        "grid": 16
      },
      "attrs": [],
      "properties": {
        "order": 9,
        "id": 24,
        "name": "facebook",
        "prevSize": 48,
        "code": 59672
      },
      "setIdx": 0,
      "setId": 1,
      "iconIdx": 38
    },
    {
      "icon": {
        "paths": [
          "M358.189 562.568h159.932c-28.082 79.386-104.088 136.286-193.186 135.652-107.995-0.844-197.41-87.198-201.526-195.194-4.538-115.7 88.359-211.344 203.109-211.344 52.467 0 100.394 19.953 136.394 52.784 8.549 7.813 21.536 7.813 29.982-0.106l58.802-55.317c9.185-8.657 9.185-23.224 0.106-31.987-57.217-54.261-134.069-88.043-218.735-89.731-180.624-3.483-332.851 144.626-334.118 325.25-1.266 181.998 145.893 329.999 327.572 329.999 174.713 0 317.545-136.813 327.044-309.205 0.211-2.111 0.422-75.164 0.422-75.164h-295.798c-12.14 0-21.958 9.818-21.958 21.958v80.441c0 12.14 9.818 21.958 21.958 21.958z",
          "M925.081 445.493v-78.647c0-10.662-8.657-19.214-19.214-19.214h-66.19c-10.662 0-19.214 8.657-19.214 19.214v78.647h-78.647c-10.662 0-19.214 8.657-19.214 19.214v66.19c0 10.662 8.657 19.214 19.214 19.214h78.647v78.647c0 10.662 8.657 19.214 19.214 19.214h66.19c10.662 0 19.214-8.657 19.214-19.214v-78.647h78.647c10.662 0 19.214-8.657 19.214-19.214v-66.19c0-10.662-8.657-19.214-19.214-19.214h-78.647z"
        ],
        "attrs": [],
        "tags": [
          "google"
        ],
        "grid": 16
      },
      "attrs": [],
      "properties": {
        "order": 8,
        "id": 23,
        "name": "google",
        "prevSize": 48,
        "code": 59671
      },
      "setIdx": 0,
      "setId": 1,
      "iconIdx": 39
    },
    {
      "icon": {
        "paths": [
          "M510.438-0.104c-282.824 0-512 229.176-512 512s229.176 512 512 512 512-229.176 512-512c0-282.824-229.176-512-512-512v0zM510.438 943.891c-238.552 0-431.998-193.446-431.998-431.998s193.446-431.998 431.998-431.998c238.552 0 431.998 193.446 431.998 431.998s-193.446 431.998-431.998 431.998v0z",
          "M631.901 433.56h-89.066v-65.003c0-19.897 20.626-24.584 30.21-24.584h57.502v-87.712l-65.94-0.312c-90.006 0-110.525 65.419-110.525 107.296v70.314h-65.315v90.42h65.315v243.97h88.649v-244.071h75.316l13.854-90.315z"
        ],
        "attrs": [],
        "tags": [
          "facebook-circle"
        ],
        "grid": 16
      },
      "attrs": [],
      "properties": {
        "order": 63,
        "id": 18,
        "name": "facebook-circle",
        "prevSize": 48,
        "code": 59666
      },
      "setIdx": 0,
      "setId": 1,
      "iconIdx": 40
    },
    {
      "icon": {
        "paths": [
          "M512.52 0.52c-282.77 0-512 229.23-512 512s229.23 512 512 512 512-229.23 512-512c0-282.77-229.23-512-512-512v0zM512.52 944.469c-238.587 0-431.952-193.365-431.952-431.952s193.365-431.952 431.952-431.952c238.587 0 431.952 193.365 431.952 431.952s-193.365 431.952-431.952 431.952v0z",
          "M768.469 342.34c-8.629 5.093-34.514 15.385-58.635 17.882 15.491-8.941 38.362-38.362 44.079-61.753-14.865 10.188-49.070 25.16-65.91 25.16 0 0 0 0 0 0.104-19.233-21.728-46.261-35.244-76.306-35.244-58.32 0-105.624 50.941-105.624 113.733 0 8.733 0.935 17.154 2.702 25.365v0c-79.112-2.183-171.638-44.91-223.722-117.994-32.020 59.671-4.261 126.101 32.020 150.323-12.371 1.039-35.346-1.559-46.16-12.787-0.728 39.607 16.944 92.107 81.503 111.132-12.475 7.278-34.41 5.197-43.975 3.534 3.329 33.475 46.885 77.242 94.396 77.242-16.944 21.104-74.747 59.466-146.27 47.197 48.55 31.812 105.208 50.317 165.191 50.317 170.39 0 302.73-148.66 295.66-332.149 0-0.208-0.104-0.416-0.104-0.624 0-0.52 0.104-1.039 0.104-1.455 0-0.52-0.104-1.143-0.104-1.767 15.491-11.435 36.281-31.604 51.149-58.216v0z"
        ],
        "attrs": [],
        "tags": [
          "twitter-circle"
        ],
        "grid": 16
      },
      "attrs": [],
      "properties": {
        "order": 120,
        "id": 17,
        "name": "twitter-circle",
        "prevSize": 48,
        "code": 59665
      },
      "setIdx": 0,
      "setId": 1,
      "iconIdx": 41
    },
    {
      "icon": {
        "paths": [
          "M974.722 207.527c7.004-23.692-1.007-49.312-20.415-64.734-11.011-8.803-24.334-13.237-37.85-13.237-10.667 0-21.337 2.785-30.911 8.503-19.023 11.162-38.922 20.115-59.703 26.433-39.714-30.375-88.962-47.278-139.581-47.278-116.019 0-212.135 86.542-227.28 198.448-92.498-19.794-176.77-70.755-237.479-145.217-11.568-14.268-28.918-22.405-47.043-22.405-1.522 0-3.127 0.106-4.755 0.215-19.879 1.563-37.639 12.766-47.684 29.949-20.395 34.939-31.126 74.783-31.126 115.377 0 27.419 4.864 54.088 13.858 79.002-9.684 11.011-15.295 25.276-15.295 40.359 0 60.15 22.705 115.463 60.535 157.020-2.335 10.366-1.969 21.337 1.434 31.833 13.090 41.001 37.038 76.281 68.014 103.209-20.115 4.564-40.936 6.898-62.058 6.898-10.947 0-22.023-0.707-33.181-1.969-2.355-0.3-4.714-0.451-7.113-0.451-25.405 0-48.411 15.896-57.044 40.38-9.574 26.563 0.556 56.276 24.293 71.547 87.207 55.846 187.972 85.385 291.376 85.385 335.353 0 536.887-269.909 540.505-533.371 27.29-23.241 51.282-49.999 71.632-79.858 7.69-10.155 12.254-22.77 12.254-36.588 0.003-20.337-10.022-38.376-25.382-49.449zM855.020 344.303c0.386 7.219 0.536 14.503 0.536 21.808 0 222.87-169.636 479.84-479.84 479.84-95.218 0-183.883-27.911-258.557-75.769 13.131 1.457 26.627 2.379 40.23 2.379 79.022 0 151.729-26.993 209.48-72.253-73.882-1.307-136.11-50.125-157.597-117.111 10.305 1.969 20.886 3.062 31.662 3.062 15.425 0 30.334-2.099 44.448-5.932-77.158-15.572-135.318-83.651-135.318-165.437 0-0.727 0-1.393 0-2.099 22.75 12.595 48.777 20.18 76.411 21.036-45.244-30.246-74.974-81.917-74.974-140.397 0-30.891 8.311-59.829 22.835-84.743 83.115 102.031 207.425 169.144 347.607 176.169-2.915-12.295-4.328-25.235-4.328-38.451 0-93.054 75.489-168.564 168.588-168.564 48.541 0 92.392 20.48 123.153 53.19 38.366-7.52 74.503-21.548 107.087-40.895-12.616 39.352-39.373 72.404-74.141 93.269 34.082-4.028 66.536-13.090 96.826-26.563-22.566 33.993-51.118 63.686-84.108 87.463z"
        ],
        "attrs": [],
        "grid": 16,
        "tags": [
          "twitter-2"
        ]
      },
      "attrs": [],
      "properties": {
        "order": 119,
        "id": 47,
        "name": "twitter-2",
        "prevSize": 48,
        "code": 59695
      },
      "setIdx": 0,
      "setId": 1,
      "iconIdx": 42
    },
    {
      "icon": {
        "paths": [
          "M512-1.043c-282.799 0-512 229.201-512 512s229.201 512 512 512 512-229.201 512-512c0-282.799-229.201-512-512-512v0zM512 942.975c-238.586 0-432.020-193.434-432.020-432.020s193.434-432.020 432.020-432.020c238.586 0 432.020 193.434 432.020 432.020s-193.434 432.020-432.020 432.020v0z",
          "M688.019 255.689h-358.922c-32.847 0-59.541 26.694-59.541 59.541v363.3c0 32.847 26.694 59.541 59.541 59.541h358.922c32.847 0 59.541-26.694 59.541-59.541v-363.3c-0.104-32.847-26.801-59.541-59.541-59.541v0zM691.147 678.53c0 1.772-1.355 3.128-3.128 3.128h-358.922c-1.772 0-3.128-1.355-3.128-3.128v-363.3c0-1.772 1.355-3.128 3.128-3.128h358.922c1.772 0 3.128 1.355 3.128 3.128v363.3zM590.729 354.334h64.548v59.228h-64.548v-59.228zM572.169 520.76c0 35.141-28.469 63.609-63.714 63.609-35.141 0-63.609-28.469-63.609-63.609s28.469-63.609 63.609-63.609c35.245 0 63.714 28.469 63.714 63.609v0zM610.125 520.444c0 56.101-45.464 101.565-101.565 101.565s-101.565-45.464-101.565-101.565l0.104-45.256h-45.36v168.409h293.644v-168.409h-45.047l-0.209 45.256zM610.125 520.444"
        ],
        "attrs": [
          {},
          {
            "strokeLinejoin": "miter",
            "strokeLinecap": "butt",
            "strokeMiterlimit": "10",
            "strokeWidth": 10.9673472
          }
        ],
        "tags": [
          "instagram-circle"
        ],
        "grid": 16
      },
      "attrs": [
        {},
        {
          "strokeLinejoin": "miter",
          "strokeLinecap": "butt",
          "strokeMiterlimit": "10",
          "strokeWidth": 10.9673472
        }
      ],
      "properties": {
        "order": 131,
        "id": 16,
        "name": "instagram-circle",
        "prevSize": 48,
        "code": 59664
      },
      "setIdx": 0,
      "setId": 1,
      "iconIdx": 43
    },
    {
      "icon": {
        "paths": [
          "M854.712 170.37c-0.15 1.297 0.703 1.792 1.311 2.454 8.025 7.799 14.486 16.763 20.514 26.020 7.083 10.752 13.23 22.002 18.026 33.881 3.833 9.591 7.444 19.354 10.257 29.14 3.461 12.377 5.707 24.73 7.857 37.27 2.273 13.51 1.792 27.348 3.912 40.718 0 0.304 0 0.799 0 1.133 0.232 11.715 0.485 23.596 0.922 35.311 3.021 73.11 1.27 146.353 1.642 219.631 0 12.681-0.29 25.388-1.147 38.263-0.413 7.639-0.164 15.135-0.645 22.607-0.703 11.742-0.621 22.965-2.249 34.512-0.645 5.209 0 10.417-0.853 15.633-1.502 8.298-2.441 16.763-3.901 25.085-2.249 11.056-5.086 21.808-8.629 32.393-3.707 11.22-8.021 22.299-13.397 32.887-7.195 14.309-15.988 27.675-26.45 39.892-7.857 9.097-16.36 17.725-25.279 25.719-9.721 8.629-20.678 15.77-31.98 22.303-2.768 1.625-6.021 2.591-8.311 4.714-1.174-0.167-2.024-0.167-2.191 1.297-2.69 1.161-5.376 2.123-7.936 3.417-0.98-0.495-1.256 0-1.338 0.829-1.56 0.631-3.185 1.13-4.727 1.625-2.068 0-4.106 0.966-5.608 2.591-0.939 0.331-1.959 0.495-2.816 0.826-2.437 0-4.687 0.799-6.67 2.591-7.212 1.959-14.38 4.079-21.576 6.202-0.768-0.826-1.017-0.331-1.348 0.631-0.935 0-1.987 0.167-2.922 0.335-0.771-1.13-1.062-0.335-1.393 0.331-2.068 0.495-4.069 0.799-6.219 1.297-0.935-0.963-1.71-0.631-2.246 0.335-0.689 0.164-1.297 0.331-1.959 0.331-0.963-0.662-1.819-0.495-2.355 0.468-3.171 0.662-6.465 0.997-9.612 1.324-1.044-0.826-1.625-0.495-2.188 0.471-0.98 0.331-1.918 0.495-2.854 0.495-1.461-0.966-2.772-0.966-3.86 0.492-0.73 0-1.434 0.167-2.205 0.167-0.775-0.659-1.338-0.659-1.915 0.331-2.966 0.304-6.093 0.471-9.11 0.799-1.71-1.13-3.338-1.297-4.84 0.335-1.71 0.164-3.584 0.164-5.417 0.331-1.792-0.826-3.625-1.161-5.253 0.331-3.045 0.14-6.106 0.471-9.151 0.799-2.041-1.13-4.233-1.297-6.147 0.167-5.045-0.662-10.049 0-15.066 0.331-0.232-0.164-0.73-0.331-1.021-0.331-4.673 0-9.469 0-14.155 0-0.604 0-0.98 0.331-1.143 0.826-1.461-0.331-2.731-0.331-3.942 0-1.457-0.495-3.062-0.164-4.687-0.164-10.045 0.164-20.303 0.164-30.433 0.468-29.303 0.829-58.607 0-87.955 0.993-17.78 0.335-35.618 0-53.398 0.167-5.25 0-10.626-1.161-15.712-0.495-6.588 0.799-13.261 0.167-19.821 0-12.489-0.167-25.156 0.167-37.683-0.966-10.67-0.826-21.49 0-32.27-0.826-9.482-0.826-19.128-0.966-28.74-1.625-9.356-0.966-18.76-2.123-28.078-3.584-8.711-1.461-17.299-3.253-25.651-5.707-12.049-3.42-23.931-7.799-35.523-12.848-12.418-5.376-24.381-11.715-35.41-19.709-10.336-7.308-19.613-15.8-28.447-24.897-1.062-0.993-1.836-2.451-3.628-2.618-0.898-1.792-2.273-3.089-3.901-4.215-0.123-2.287-1.748-3.253-3.54-4.246-5.021-7.335-10.67-14.169-15.425-21.641-7.857-12.377-14.418-25.252-19.586-39.089-3.417-9.097-6.465-18.719-8.987-28.146-2.287-9.622-4.396-19.381-5.622-29.14-0.98-7.663-2.113-15.135-2.731-22.801-1.212-15.299-1.778-30.269-2.437-45.735-0.567-14.834-0.567-29.467-0.771-44.633-0.399-33.686-0.208-67.209-0.317-101.089 0-1.297 0.522-2.922-0.539-4.383 0-9.124 0.539-18.251 0.372-27.675-0.208-9.759 0.399-19.876 0.167-29.802-0.082-7.001 0.608-14.169-0.082-21.173 1.174-0.799 0.608-1.929 0.689-3.089 0.082-4.547 0-9.097 0-13.507 0-0.799 0.29-1.625-0.608-2.287 0.768-10.557 0.317-21.146 0.522-31.73 0.167-3.748 0.857-7.499 0.372-11.247 1.044-1.792 1.044-3.724 0.195-5.68 0.58-2.454 1.058-4.577 0.58-7.004 1.13-1.157 0.645-2.949 0.645-4.41 0.608-21.309 2.522-42.646 6.796-63.819 3.543-17.258 8.837-34.017 15.712-50.446 5.086-12.377 11.595-24.095 19.162-35.345 6.393-9.097 13.687-17.889 21.378-26.214 6.67-7.305 13.947-13.674 21.405-19.849 10.947-8.793 22.593-16.128 34.915-22.467 11.025-5.543 22.426-9.926 34.154-14.005 14.155-4.717 28.477-7.967 43.213-10.257 9.605-1.297 19.381-2.123 29.068-3.089 12.902-0.966 25.723-0.826 38.54-1.792 2.69-0.331 5.448-0.167 8.175-0.331 15.234-0.335 30.447-0.966 45.745-1.297 6.315 0 12.653 0 19.050-0.167 1.379 0 2.772-0.331 4.151-0.331 0.645 0.331 1.42 0.331 2 0 1.021 1.297 2.028 1.297 2.966 0 3.458 0.826 7.001 0.331 10.295 0.331 7.898 0 15.834 0 23.692 0 1.502 0 3.048 0.495 4.519-0.495 0.857 0.495 1.628 0.495 2.481 0 2.4 1.161 5.007 0.331 7.444 0.495 7.649 0 15.217 0 22.91 0 1.021 0 2 0 2.85-0.495 0.853 0.495 1.625 0.495 2.4 0 4.687 0.993 9.291 0.662 14.087 0.167 0.567 1.157 1.225 1.157 1.915 0 1.792 0.495 3.628 0.495 5.403-0.167 1.959 0.662 3.874 0.662 5.871 0 1.836 0.993 3.461 0.662 5.171 0 1.625 0.662 3.379 0.662 5.004 0 1.147 0.662 2.4 0.662 3.543 0 0.563 0.331 1.021 0.331 1.625 0 2.191 0.662 4.591 0.662 6.796 0 2.854 0.993 5.608 0.662 8.38 0 4.069 0.993 8.103 0.662 12.005 0.167 4.396 1.157 9.001 0.993 13.442 0.993 14.032 0 28.037 0.799 42.001 1.297 7.277 0.331 14.572 0.331 21.927 0.495 10.629 0.164 21.132 1.625 31.717 2.096 7.69 0.659 15.384 1.625 23.156 3.113 9.554 1.297 19.036 3.089 28.409 6.007 12.612 3.751 25.098 7.83 37.076 13.507 10.049 4.577 19.616 9.926 28.894 15.961 3.663 2.287 6.919 5.543 10.82 7.168 0.085 0.966 0.495 1.461 1.56 1.13 2.922 2.621 5.444 5.212 8.779 7.168 0.935 2.922 2.768 4.714 5.663 5.209 1.423 2.127 3.13 3.751 5.171 5.212 0.276 1.792 1.502 3.089 3.379 3.249 0.164 0.833 0.727 1.468 1.212 1.795zM844.872 386.086c0.208-4.41 0.44-9.291-0.208-14.169 0.082-0.993 0.208-2.123 0.208-3.249-0.208-11.247-1.103-22.467-1.628-34.017-0.413-10.417-1.71-20.675-3.249-30.932-2.417-15.63-6.922-30.461-13.111-44.769-4.605-10.421-10.254-20.21-17.336-29.307-5.543-6.537-11.8-12.708-18.196-18.579-14.152-13.179-30.805-21.641-48.835-27.515-8.352-2.755-16.899-4.881-25.446-6.506-7.608-1.461-15.343-2.758-23.030-3.417-14.735-1.297-29.389-1.959-44.124-2.591-20.217-0.662-40.496-0.495-60.716-0.829-16.319-0.331-32.515 0-48.835 0-41.226 0-82.538-0.331-123.696 0.335-17.050 0.331-34.307 0-51.319 0.799-15.879 0.826-31.785 1.161-47.497 2.949-8.011 0.799-16.36 1.959-24.33 3.584-10.708 2.591-21.132 5.68-31.468 9.926-13.302 5.209-25.197 12.541-36.222 21.804-9.759 8.298-18.193 17.592-25.347 28.341-1.751 2.423-3.997 4.881-4.396 7.967-1.393 0.826-1.751 2.287-1.751 3.417-1.707 1.297-2.645 2.922-2.563 5.209-0.768 0.167-1.225 0.662-1.625 1.297-3.748 7.997-7.001 16.459-9.206 24.921-2.191 7.967-4.273 16.097-5.448 24.426-1.434 10.090-2.768 20.507-3.335 30.597-0.785 13.179-0.98 26.385-1.71 39.561-0.785 11.882-0.785 23.596-0.857 35.478-0.164 28.669-0.164 57.313-0.164 86.286 0 0.993-0.539 2.127 0.898 2.785-0.126 0.471-0.372 1.133-0.372 1.792 0 10.394-0.123 20.815-0.123 31.235 0 0.662 0.123 1.625 0.689 2.287-0.925 1.297-0.689 2.618-0.689 3.915 0 16.432 0 32.56 0 48.988 0 0.993-0.082 2.287 0.495 3.089-0.734 1.161-0.58 2.618-0.58 3.915 0.372 19.876-0.082 39.561 1.143 59.436 0.939 14.473 0.689 29.303 2.481 44.107 1.225 8.957 2.205 18.084 4.236 27.013 1.707 8.161 4.229 15.961 6.796 23.627 7.291 21.313 19.173 39.229 35.618 54.528 12.046 11.223 25.634 20.347 41.062 26.549 10.172 3.888 20.593 7.141 31.222 9.591 13.384 3.089 27.098 4.246 40.827 5.045 11.837 0.826 23.719 1.297 35.601 1.625 17.34 0.495 34.85 0.495 52.255 0.662 22.589 0.631 45.391 0.468 67.966 0.468 40.305 0 80.759 0.335 121.050-0.631 13.216-0.495 26.409-0.495 39.557-0.826 13.797-0.471 27.675-1.628 41.557-2.096 3.294-0.331 6.878-0.662 10.008-2.287 0.608 0.167 1.256 0 1.836-0.331 3.734 0.963 7.4-0.167 10.943-0.966 0.249 0.137 0.734 0.304 1.106 0.304 5.857-0.631 11.397-2.096 16.968-3.584 9.851-2.922 19.613-6.506 29.013-10.721 8.103-4.246 16.128-8.465 23.156-14.008 7.458-6.202 14.694-12.541 21.009-19.876 6.021-7.137 11.633-14.473 16.36-22.77 4.683-8.325 8.212-17.091 11.192-26.051 2.604-7.827 4.878-15.961 6.434-23.931 1.42-7.499 2.84-15.162 3.611-22.798 1.184-13.674 2-27.515 2.563-41.349 0.621-16.128 0.98-32.225 1.062-48.517 0.331-65.116 0.208-130.229-0.167-195.342 0-3.915-0.608-7.997-0.771-11.882 0.403-4.748-0.492-9.298-0.573-14.012z",
          "M651.786 353.198c-0.082 1.297 1.021 2.123 1.874 2.755 5.54 5.543 11.397 10.919 16.36 17.258 6.673 8.465 13.152 16.927 18.76 26.218 4.396 7.499 8.625 15.135 12.087 23.265 3.017 7.001 5.707 14.336 8.311 21.504 3.82 11.052 5.734 22.965 8.052 34.512 0.853 3.751 0.454 7.967 0.935 11.882 1.423 12.848 1.27 25.556-0.246 38.431-0.608 6.007-1.174 11.882-2.236 17.562-1.42 7.499-2.85 14.834-4.96 22.002-1.918 6.833-4.605 13.339-7.212 20.012-6.506 16.292-15.217 31.594-25.679 45.735-8.465 11.578-18.36 22.002-29.054 31.925-13.397 12.049-28.365 21.972-44.244 30.433-7.001 3.751-14.24 6.833-21.736 9.455-8.342 3.089-16.473 6.007-25.098 8.131-10.796 2.287-21.531 4.246-32.529 4.881-8.823 0.826-17.657 0.993-26.45 0.826-16.845-0.826-33.495-3.249-49.691-7.994-9.94-2.591-19.507-6.339-28.822-10.585-5.731-2.423-11.274-5.513-16.633-8.765-6.728-4.243-13.442-8.325-19.825-13.039-10.462-7.499-20.111-15.961-28.908-25.388-6.339-6.837-12.172-14.169-17.821-21.671-9.967-13.674-18.115-28.31-24.344-44.104-3.983-9.926-7.363-19.849-9.759-30.273-2.56-11.742-4.564-23.46-5.086-35.509-0.082-1.625 0.608-3.249-0.935-4.547 0-0.495-0.082-0.966-0.082-1.792 0.771-1.461 0.935-3.417-0.123-4.881 0-2.287 0.123-4.577 0.123-6.833 1.017-0.829 0.935-1.628 0.935-2.785 0-7.472 0.689-14.971 1.71-22.607 1.546-10.117 3.461-20.207 6.301-29.798 3.792-12.875 8.625-25.088 14.694-36.97 4.482-8.929 9.359-17.562 15.299-25.388 6.683-9.291 13.797-18.388 22.026-26.382 7.4-7.472 15.34-14.473 23.641-20.978 9.977-7.663 20.593-14.008 31.713-19.712 8.902-4.547 18.101-8.625 27.665-11.715 7.086-2.454 14.254-4.246 21.654-5.871 11.926-2.591 23.931-3.888 36.062-4.383 14.087-0.826 27.965-0.331 41.847 2.287 2.604 0.304 5.294 1.625 7.857 0.137 3.249 1.792 7.069 1.792 10.445 2.785 14.735 3.751 29.030 8.96 42.496 15.633 8.066 4.052 15.797 8.625 23.723 13.179 1.181 2.287 3.103 3.584 5.871 3.748 0.481 0.495 0.853 1.133 1.625 1.297 2.147 2.785 3.54 3.919 6.062 4.55 0.167 0.164 0.567 0.331 0.734 0.331 0.208 1.792 0.98 2.618 2.69 2.287 0.123 0.331 0.273 0.495 0.689 0.662 1.225 2.423 2.935 4.714 6.106 5.345 0.686 1.481 1.83 2.28 3.123 2.942zM433.524 624.408c0.481 0.495 1.099 0.826 1.71 0.495 0.317 1.792 1.915 1.792 3.089 2.591 0.079 0.826 0.536 1.625 1.434 1.959 3.048 1.457 6.216 3.086 9.277 4.741 0.608 0.137 1.062 0.137 1.543-0.331 0.567 0.331 1.062 0.631 1.628 0.963 0.079 0.335 0.079 0.662 0.29 0.662 8.793 4.383 18.111 7.001 27.593 9.428 4.963 0.993 9.923 1.461 15.008 2.127 2.854 0.164 5.748 0.826 8.588-0.662 4.441 0.331 8.755 0.495 13.029-0.137 1.751 1.625 3.956 0.963 5.775 0.631 12.541-1.297 24.794-4.215 36.349-9.127 7.567-3.249 15.258-6.67 22.344-11.22 6.188-4.243 12.046-8.625 17.903-13.339 10.018-8.796 18.565-18.886 25.737-29.802 6.42-9.923 11.424-20.842 15.053-32.225 3.983-12.377 6.311-25.085 6.506-38.263 0.082-6.175-0.109-12.544-0.689-18.555-0.358-6.506-1.42-12.875-3.045-19.217-3.461-13.339-8.796-26.382-16.114-38.096-1.707-2.925-2.935-6.342-6.021-7.967-0.167-0.335-0.457-0.662-0.621-0.993 0.167-1.461-0.608-2.123-1.942-2.591-0.208-0.167-0.372-0.495-0.662-0.826 0.372-0.966-0.317-1.461-0.853-2.127-5.775-7.472-12.172-14.305-19.572-20.343-3.792-2.925-7.25-6.342-12.049-8.134-0.44-1.625-1.915-2.123-3.127-2.755-8.96-5.711-18.528-10.421-28.532-14.008-8.714-2.785-17.712-5.041-26.825-5.871-12.462-1.457-24.907-1.457-37.366 0.167-6.632 0.662-13.305 2.123-19.821 4.079-6.588 2.26-12.943 4.881-19.241 7.799-11.773 5.045-22.388 12.213-32.079 20.347-15.947 14.005-28.327 30.764-36.663 50.145-2.563 6.202-4.564 12.377-6.397 18.719-0.485 1.321-1.256 2.618 0.164 3.915-0.079 0.495-0.164 1.13-0.369 1.625-0.734 0.167-0.734 0.993-1.048 1.792-0.785 0.331-1.434 0.495-0.372 1.461-0.208 1.161-0.853 2.454-0.689 3.751-0.853 0.331-0.935 0.826-0.079 1.294-0.208 1.461-0.608 3.116-0.771 4.745-1.062 0.631-1.147 1.297-0.167 1.929-0.123 1.324-0.331 2.454-0.522 3.915-1.56 0.993-1.225 2.454-0.372 3.919-0.164 4.215-0.29 8.793 0 13.012-1.253 4.577-0.768 8.465 1.062 12.377-0.167 1.461 0.485 2.618 0.689 3.915-0.857 1.133-0.98 1.959 0.164 2.922 0.082 0.498 0.276 1.461 0.481 1.959-0.645 2.127 0.126 3.751 1.437 5.376 0.082 0.662 0.195 1.625 0.399 2.423-0.399 2.785 0.164 4.745 2.205 7.663 0.068 0.495 0.15 1.13 0.399 1.792-0.522 2.287 0.522 4.079 2.232 5.707 0.621 1.461 1.062 2.758 1.642 4.215-0.58 1.161 0 1.461 0.898 1.795 0.232 0.826 0.645 1.625 0.922 2.451-0.276 1.625 0.082 2.758 1.71 3.253 0.331 0.631 0.621 1.13 0.898 1.792-0.195 2.287 0.659 4.052 2.563 5.041 0.079 0.495 0.29 0.799 0.413 1.133 0 1.625 0.44 2.618 2.082 3.249 0.191 0.331 0.355 0.662 0.522 0.826 0.082 1.959 0.853 3.584 2.85 4.215 0.362 1.324 1.461 2.454 2.318 3.584-0.126 1.324 0.608 2.127 2 2.454l0.273 0.167c0.167 1.956 0.939 3.584 3.267 3.748 0.444 0.799 0.922 1.297 1.42 1.792-0.369 2.423 0.98 3.089 2.895 3.42 3.171 3.249 6.025 6.67 9.636 9.428-0.082 1.625 0.621 2.618 2.328 2.287 1.133 1.792 3.13 2.123 4.468 3.748-0.232 1.461 0.29 1.628 1.434 1.133 0.399 0.331 0.771 0.495 1.024 0.495 0 1.792 0.608 2.591 2.437 2.096 1.174 0.659 2.4 1.488 3.584 2.123-0.020 1.799 0.587 2.792 2.338 1.799z",
          "M725.862 337.568c-26.286-0.167-48.476-21.804-47.623-49.814 0.785-27.675 21.255-48.022 49.333-47.855 28.74 0.468 49.002 21.804 48.517 50.446-0.454 27.18-23.156 48.684-50.227 47.223z",
          "M639.867 471.381c0.29 1.457 0.563 2.922 0.98 4.079-0.689 0.631-0.771 1.13-0.771 1.956-2.522-0.331-1.915-2.618-2.522-3.915-0.372-0.993 0.208-1.792 1.543-2.123 0.205 0.003 0.372 0.003 0.771 0.003z"
        ],
        "attrs": [],
        "grid": 16,
        "tags": [
          "instagram-2"
        ]
      },
      "attrs": [],
      "properties": {
        "order": 109,
        "id": 49,
        "name": "instagram-2",
        "prevSize": 48,
        "code": 59696
      },
      "setIdx": 0,
      "setId": 1,
      "iconIdx": 44
    },
    {
      "icon": {
        "paths": [
          "M32.865 296.077h959.957c17.696 0 32.020-14.324 32.020-32.020s-14.324-32.020-32.020-32.020h-959.957c-17.696 0-32.020 14.324-32.020 32.020s14.324 32.020 32.020 32.020v0z",
          "M992.82 456.071h-959.957c-17.696 0-32.020 14.324-32.020 32.020s14.324 32.020 32.020 32.020h959.957c17.696 0 32.020-14.324 32.020-32.020-0.105-17.696-14.432-32.020-32.020-32.020v0z",
          "M992.82 679.997h-639.972c-17.696 0-32.020 14.324-32.020 32.020s14.324 32.020 32.020 32.020h639.972c17.696 0 32.020-14.324 32.020-32.020-0.105-17.591-14.432-32.020-32.020-32.020v0z"
        ],
        "attrs": [],
        "tags": [
          "menu-2"
        ],
        "grid": 16
      },
      "attrs": [],
      "properties": {
        "order": 42,
        "id": 15,
        "name": "menu-2",
        "prevSize": 48,
        "code": 59663
      },
      "setIdx": 0,
      "setId": 1,
      "iconIdx": 45
    },
    {
      "icon": {
        "paths": [
          "M511.159 648.883l-126.79-111.126-362.186 310.354c13.141 12.511 30.7 19.976 50.36 19.976h876.919c19.553 0 37.111-7.465 50.252-19.976l-362.186-310.354-126.372 111.126z",
          "M999.715 156.649c-12.826-12.511-30.7-19.976-50.252-19.976h-876.919c-19.345 0-37.219 7.465-50.36 19.976l488.976 418.958 488.556-418.958z",
          "M-1.051 200.91v607.567l353.565-300.471-353.565-307.096z",
          "M669.384 508.111l353.565 300.471v-607.988l-353.565 307.516z"
        ],
        "attrs": [],
        "tags": [
          "mail"
        ],
        "grid": 16
      },
      "attrs": [],
      "properties": {
        "order": 39,
        "id": 12,
        "name": "mail",
        "prevSize": 48,
        "code": 59660
      },
      "setIdx": 0,
      "setId": 1,
      "iconIdx": 46
    },
    {
      "icon": {
        "paths": [
          "M884.314 386.843c0-215.022-174.99-390.012-390.012-390.012s-390.012 174.99-390.012 390.012c0 137.802 71.851 259.164 180.045 328.485v275.495c0 11.062 6.109 21.281 15.802 26.442 9.798 5.266 21.597 4.637 30.763-1.475l163.399-108.934 163.399 108.934c9.166 6.109 21.071 6.744 30.763 1.475 9.798-5.266 15.802-15.38 15.802-26.442v-275.495c108.197-69.321 180.045-190.686 180.045-328.485zM644.322 934.776l-133.375-88.917c-10.114-6.744-23.177-6.744-33.291 0l-133.375 88.917v-187.948c46.249 19.28 96.924 30.026 150.022 30.026s103.773-10.746 150.022-30.026v187.948zM494.3 716.805c-181.944 0-329.962-148.021-329.962-329.962s148.021-329.962 329.962-329.962 329.962 148.021 329.962 329.962-148.021 329.962-329.962 329.962z",
          "M732.923 316.677c-3.476-10.957-12.958-18.964-24.336-20.544l-129.583-18.437-57.943-114.411c-5.058-10.114-15.486-16.434-26.761-16.434s-21.703 6.322-26.761 16.434l-57.84 114.411-129.583 18.437c-11.378 1.58-20.86 9.587-24.336 20.544s-0.421 22.966 7.902 30.869l93.34 88.811-22.019 125.262c-2.001 11.167 2.531 22.545 11.799 29.289 9.166 6.744 21.387 7.689 31.501 2.531l116.099-59.628 116.099 59.628c10.114 5.161 22.335 4.216 31.501-2.531s13.695-18.121 11.799-29.289l-22.019-125.262 93.34-88.811c8.218-7.902 11.273-19.912 7.797-30.869zM578.582 404.014c-7.27 6.952-10.641 17.066-8.85 26.969l14.327 81.649-76.064-39.087c-8.639-4.424-18.751-4.424-27.39 0l-76.064 39.087 14.327-81.649c1.685-9.903-1.58-20.017-8.85-26.969l-60.155-57.206 83.756-11.905c9.693-1.369 18.121-7.376 22.545-16.12l38.139-75.432 38.139 75.432c4.424 8.745 12.852 14.748 22.545 16.12l83.756 11.905-60.155 57.206z"
        ],
        "attrs": [],
        "tags": [
          "prize"
        ],
        "grid": 16
      },
      "attrs": [],
      "properties": {
        "order": 37,
        "id": 10,
        "name": "prize",
        "prevSize": 48,
        "code": 59658
      },
      "setIdx": 0,
      "setId": 1,
      "iconIdx": 47
    },
    {
      "icon": {
        "paths": [
          "M760.046 415.503c-2.093-1.15-51.074-26.584-132.815-41.968l-3.139-13.397c-8.163-35.061-39.039-59.76-75.251-59.76h-73.472c-36.003 0-66.983 24.492-75.251 59.76l-3.139 13.397c-81.739 15.28-130.722 40.818-132.815 41.968-4.606 2.408-7.536 7.223-7.536 12.454v166.515c0 66.773 54.213 121.092 121.092 121.092 7.85 0 14.128-6.28 14.128-14.128s-6.28-14.128-14.128-14.128c-51.074 0-92.834-41.55-92.834-92.834v-157.618c16.954-7.745 61.855-26.060 126.22-37.155 5.547-0.943 10.047-5.234 11.302-10.676l5.234-22.503c5.234-22.188 24.699-37.781 47.621-37.781h73.472c22.816 0 42.387 15.49 47.621 37.781l5.234 22.503c1.256 5.547 5.756 9.734 11.302 10.676 64.262 11.093 109.16 29.409 126.22 37.155v157.618c0 51.074-41.55 92.834-92.834 92.834-7.85 0-14.128 6.28-14.128 14.128s6.28 14.128 14.128 14.128c66.773 0 121.092-54.213 121.092-121.092v-166.515c0.209-5.234-2.617-10.047-7.326-12.454v0z",
          "M302.993 386.617c1.465 0 2.93-0.209 4.396-0.733 14.862-4.919 30.455-9.315 46.365-13.082 7.639-1.78 12.245-9.419 10.465-16.954-1.78-7.639-9.419-12.245-16.954-10.465-16.641 3.976-33.072 8.582-48.771 13.71-7.43 2.408-11.408 10.465-9 17.792 2.093 5.965 7.639 9.734 13.502 9.734v0z",
          "M512.209 398.13c-89.798 0-162.748 73.053-162.748 162.748 0 89.798 73.053 162.852 162.748 162.852 89.798 0 162.748-73.053 162.748-162.748s-73.053-162.852-162.748-162.852v0zM512.209 695.469c-74.205 0-134.489-60.39-134.489-134.489s60.39-134.593 134.489-134.593 134.489 60.493 134.489 134.593-60.39 134.489-134.489 134.489v0z",
          "M512 0c-282.373 0-512 229.73-512 512s229.627 512 512 512 512-229.73 512-512-229.627-512-512-512zM512 998.777c-268.35 0-486.777-218.426-486.777-486.777s218.426-486.777 486.777-486.777 486.777 218.426 486.777 486.777-218.426 486.777-486.777 486.777z"
        ],
        "attrs": [],
        "tags": [
          "camera"
        ],
        "grid": 16
      },
      "attrs": [],
      "properties": {
        "order": 89,
        "id": 9,
        "name": "camera",
        "prevSize": 48,
        "code": 127744
      },
      "setIdx": 0,
      "setId": 1,
      "iconIdx": 48
    },
    {
      "icon": {
        "paths": [
          "M986.619 873.993h-949.129c-8.989 0-17.345-4.863-21.785-12.69s-4.335-17.45 0.317-25.168l85.872-142.978c39.553-65.99 60.492-141.498 60.492-218.486v-125.21c0-192.786 156.937-349.617 349.617-349.617s349.725 156.831 349.725 349.617v125.21c0 76.988 20.939 152.496 60.492 218.486l85.766 142.978c4.655 7.718 4.758 17.345 0.317 25.168-4.335 7.826-12.69 12.69-21.679 12.69zM81.586 824.076h860.934l-63.135-105.117c-44.205-73.711-67.576-158.1-67.576-244.183v-125.316c-0.106-165.292-134.517-299.703-299.809-299.703s-299.703 134.411-299.703 299.703v125.21c0 85.978-23.371 170.472-67.681 244.183l-63.029 105.223z",
          "M512 1023.843c-68.844 0-124.893-56.049-124.893-124.893 0-22.102 5.818-43.676 16.922-62.607 6.978-11.844 22.208-15.759 34.264-8.989 11.844 6.978 15.862 22.314 8.989 34.264-6.449 10.998-10.047 24.323-10.047 37.33 0 41.35 33.629 74.979 74.979 74.979s74.979-33.629 74.979-74.979c0-13.007-3.595-26.226-10.047-37.33-6.978-11.844-2.96-27.18 8.989-34.264 11.95-6.872 27.18-2.96 34.264 8.989 10.998 18.931 16.922 40.504 16.922 62.607-0.423 68.844-56.366 124.893-125.316 124.893z"
        ],
        "attrs": [],
        "tags": [
          "notification"
        ],
        "grid": 16
      },
      "attrs": [],
      "properties": {
        "order": 35,
        "id": 8,
        "name": "notification",
        "prevSize": 48,
        "code": 59656
      },
      "setIdx": 0,
      "setId": 1,
      "iconIdx": 49
    },
    {
      "icon": {
        "paths": [
          "M570.61 308.129c-4.961-3.317-8.183-8.896-8.183-15.228 0-0.378 0.012-0.754 0.034-1.127l-0.002 0.051c0-5.217 3.587-128.958 55.92-207.702 37.823-57.061 85.428-110.698 147.869-69.777s30.487 105.644-7.989 163.031c-53.148 79.233-165.803 130.099-171.346 132.381-1.933 0.752-4.17 1.188-6.51 1.188-3.63 0-7.016-1.050-9.868-2.863l0.075 0.044zM745.216 44.997c-16.303-10.434-39.454-26.248-96.841 60.159-31.628 47.442-43.203 116.73-47.442 156.673 35.052-19.401 94.395-56.898 126.023-104.34 57.55-86.407 33.747-102.221 18.26-112.492z",
          "M581.207 293.456l-256.285 14.673-324.922 488.442 342.366 228.244 324.269-489.094zM530.993 368.94c18.803 12.804 30.989 34.111 30.989 58.264 0 38.807-31.459 70.267-70.267 70.267s-70.267-31.459-70.267-70.267c0-14.479 4.379-27.935 11.885-39.115l-0.16 0.253c12.821-18.942 34.231-31.227 58.511-31.227 14.662 0 28.278 4.481 39.553 12.147l-0.245-0.157zM394.373 761.846l-108.253 21.683c-1.409 0.296-3.027 0.466-4.685 0.466-11.522 0-21.133-8.187-23.33-19.062l-0.026-0.153-21.846-108.090c-0.864-3.981-1.359-8.553-1.359-13.242 0-31.652 22.55-58.038 52.462-63.967l0.415-0.069h0.978c3.99-0.868 8.573-1.365 13.272-1.365 31.596 0 57.944 22.471 63.935 52.303l0.070 0.417v1.956h1.956c3.981-0.864 8.553-1.359 13.242-1.359 31.652 0 58.038 22.55 63.967 52.462l0.069 0.415v0.489c0.86 3.971 1.352 8.533 1.352 13.209 0 31.416-22.215 57.644-51.794 63.83l-0.424 0.074z"
        ],
        "attrs": [],
        "tags": [
          "outlay"
        ],
        "grid": 16,
        "width": 800
      },
      "attrs": [],
      "properties": {
        "order": 138,
        "id": 7,
        "name": "outlay",
        "prevSize": 48,
        "code": 59655
      },
      "setIdx": 0,
      "setId": 1,
      "iconIdx": 50
    },
    {
      "icon": {
        "paths": [
          "M851.895 117.317h-136.758v-88.819c0-17.91-14.436-31.714-32.346-31.714-1.791 0-2.844 0.632-3.476 1.159-0.632-0.527-1.685-1.159-2.317-1.159h-325.883c-17.807 0-31.714 13.802-31.714 31.714v88.819h-137.284c-39.298 0-69.854 30.555-69.854 69.854v114.21h60.581v650.181c0 39.298 30.029 69.222 69.222 69.222h549.88c39.298 0 69.751-30.029 69.751-69.222v-650.181h60.055v-114.21c0-39.193-30.658-69.854-69.854-69.854v0zM382.826 60.211h268.249v57.105h-268.249v-57.105zM797.634 951.672c0 4.003-1.791 5.796-5.796 5.796h-549.772c-4.003 0-5.796-1.791-5.796-5.796v-650.289h561.364v650.289zM857.689 237.958h-681.371v-50.785c0-4.003 1.685-6.323 5.796-6.323h669.779c4.003 0 5.796 2.317 5.796 6.323v50.785z",
          "M633.271 375.872h63.955v525.016h-63.955v-525.016z",
          "M485.555 375.872h64.060v525.016h-64.060v-525.016z",
          "M337.838 375.872h63.955v525.016h-63.955v-525.016z"
        ],
        "attrs": [],
        "tags": [
          "trash"
        ],
        "grid": 16
      },
      "attrs": [],
      "properties": {
        "order": 33,
        "id": 6,
        "name": "trash",
        "prevSize": 48,
        "code": 59654
      },
      "setIdx": 0,
      "setId": 1,
      "iconIdx": 51
    },
    {
      "icon": {
        "paths": [
          "M829.613 341.754c-13.282 0-24.034 10.752-24.034 24.034v150.217c0 158.859-129.239 288.204-288.204 288.204s-288.204-129.239-288.204-288.204v-150.217c0-13.282-10.752-24.034-24.034-24.034s-24.034 10.752-24.034 24.034v150.217c0 177.308 137.987 322.99 312.238 335.432v124.81h-124.389c-13.282 0-24.034 10.752-24.034 24.034s10.752 24.034 24.034 24.034h296.743c13.282 0 24.034-10.752 24.034-24.034s-10.752-24.034-24.034-24.034h-124.389v-124.81c174.251-12.333 312.238-158.016 312.238-335.432v-150.217c0.105-13.282-10.647-24.034-23.929-24.034z",
          "M533.399 0.315h-32.046c-109.948 0-199.339 89.391-199.339 199.339v332.373c0 109.948 89.391 199.339 199.339 199.339h32.046c109.948 0 199.339-89.391 199.339-199.339v-332.478c-0.105-109.842-89.497-199.234-199.339-199.234zM684.565 261.955h-87.178c-13.282 0-24.034 10.752-24.034 24.034s10.752 24.034 24.034 24.034h87.178v66.938h-87.178c-13.282 0-24.034 10.752-24.034 24.034s10.752 24.034 24.034 24.034h87.178v66.938h-87.178c-13.282 0-24.034 10.752-24.034 24.034s10.752 24.034 24.034 24.034h86.968c-4.218 79.693-70.311 143.259-151.060 143.259h-32.046c-80.747 0-146.842-63.566-151.060-143.259h86.968c13.282 0 24.034-10.752 24.034-24.034s-10.752-24.034-24.034-24.034h-87.178v-66.938h87.178c13.282 0 24.034-10.752 24.034-24.034s-10.752-24.034-24.034-24.034h-87.178v-66.938h87.178c13.282 0 24.034-10.752 24.034-24.034s-10.752-24.034-24.034-24.034h-87.178v-62.407c0-59.983 34.997-111.845 85.703-136.3v67.992c0 13.282 10.752 24.034 24.034 24.034s24.034-10.752 24.034-24.034v-81.906c5.694-0.632 61.142-0.632 66.938 0v81.906c0 13.282 10.752 24.034 24.034 24.034s24.034-10.752 24.034-24.034v-67.992c50.703 24.456 85.703 76.321 85.703 136.3v62.407z"
        ],
        "attrs": [],
        "tags": [
          "microphone"
        ],
        "grid": 16
      },
      "attrs": [],
      "properties": {
        "order": 16,
        "id": 5,
        "name": "microphone",
        "prevSize": 48,
        "code": 59653
      },
      "setIdx": 0,
      "setId": 1,
      "iconIdx": 52
    },
    {
      "icon": {
        "paths": [
          "M512.322 267.934c-145.045 0-263.053 118.008-263.053 263.053s118.008 263.053 263.053 263.053 263.053-118.008 263.053-263.053-118.008-263.053-263.053-263.053zM512.322 752.202c-121.979 0-221.105-99.236-221.105-221.105s99.236-221.215 221.105-221.215 221.105 99.236 221.105 221.215-99.128 221.105-221.105 221.105z",
          "M512.322 366.848c-90.545 0-164.141 73.596-164.141 164.141s73.596 164.141 164.141 164.141 164.141-73.596 164.141-164.141-73.701-164.141-164.141-164.141zM512.322 655.436c-68.66 0-124.446-55.786-124.446-124.446s55.786-124.446 124.446-124.446 124.446 55.786 124.446 124.446c0 68.66-55.786 124.446-124.446 124.446z",
          "M958.184 191.767h-269.598l-27.573-74.991c-8.047-22.1-29.289-36.904-52.783-36.904h-191.819c-23.494 0-44.736 14.804-52.783 36.904l-27.573 74.991h-91.618v-29.396c0-23.709-19.311-43.020-43.020-43.020h-63.401c-23.709 0-43.020 19.311-43.020 43.020v29.396h-28.643c-36.475 0-66.086 29.718-66.086 66.086v546.382c0 36.475 29.718 66.086 66.086 66.086h891.828c36.475 0 66.086-29.718 66.086-66.086v-546.382c0.107-36.475-29.608-66.086-66.086-66.086zM404.935 131.902c1.716-4.826 6.331-7.94 11.479-7.94h191.819c5.044 0 9.656 3.218 11.479 7.94l21.993 59.862h-258.762l21.993-59.862zM136.836 162.371c0-0.644 0.536-1.073 1.073-1.073h63.401c0.644 0 1.073 0.536 1.073 1.073v29.396h-65.657v-29.396zM44.36 358.482h65.335v345.015h-65.335v-345.015zM980.284 804.234c0 12.123-9.87 21.993-21.993 21.993h-891.936c-12.123 0-21.993-9.87-21.993-21.993v-56.644h87.328c12.123 0 21.993-9.87 21.993-21.993v-389.108c0-12.123-9.87-21.993-21.993-21.993h-87.328v-56.644c0-12.123 9.87-21.993 21.993-21.993h606.676c0.107 0 0.107 0 0.215 0 0 0 0.107 0 0.107 0h284.831c12.123 0 21.993 9.87 21.993 21.993v56.644h-87.328c-12.123 0-21.993 9.87-21.993 21.993v389.108c0 12.123 9.87 21.993 21.993 21.993h87.328l0.107 56.644zM980.284 703.497h-65.335v-345.015h65.335v345.015z",
          "M512.322 449.883c-44.736 0-81.104 36.37-81.104 81.104 0 10.943 8.905 19.848 19.848 19.848s19.848-8.905 19.848-19.848c0-22.851 18.561-41.411 41.411-41.411 10.943 0 19.848-8.905 19.848-19.848s-8.905-19.848-19.848-19.848z"
        ],
        "attrs": [],
        "tags": [
          "photo"
        ],
        "grid": 16
      },
      "attrs": [],
      "properties": {
        "order": 15,
        "id": 4,
        "name": "photo",
        "prevSize": 48,
        "code": 59652
      },
      "setIdx": 0,
      "setId": 1,
      "iconIdx": 53
    },
    {
      "icon": {
        "paths": [
          "M512-0.524c-207.846 0-376.936 169.090-376.936 376.936 0 54.193 11.133 106.074 32.978 153.968 94.206 206.163 274.957 423.99 328.101 485.743 3.99 4.623 9.768 7.353 15.858 7.353s11.973-2.625 15.965-7.353c53.143-61.861 233.891-279.577 328.101-485.848 21.95-47.891 32.978-99.669 32.978-153.968 0-207.741-169.195-376.831-377.041-376.831v0zM512 572.283c-107.967 0-195.873-87.906-195.873-195.873s87.906-195.873 195.873-195.873 195.873 87.906 195.873 195.873-87.906 195.873-195.873 195.873v0z"
        ],
        "attrs": [],
        "tags": [
          "location-white"
        ],
        "grid": 16
      },
      "attrs": [],
      "properties": {
        "order": 18,
        "id": 2,
        "name": "location-white",
        "prevSize": 48,
        "code": 59650
      },
      "setIdx": 0,
      "setId": 1,
      "iconIdx": 54
    },
    {
      "icon": {
        "paths": [
          "M509.561 0.318c-282.357 0-512 229.64-512 512s229.64 512 512 512c282.357 0 512-229.64 512-512s-229.64-512-512-512v0zM509.561 957.176c-245.234 0-444.858-199.518-444.858-444.858s199.624-444.858 444.858-444.858c245.234 0 444.858 199.518 444.858 444.858s-199.624 444.858-444.858 444.858v0z",
          "M509.561 234.309c-90.053 0-163.349 73.293-163.349 163.349 0 18.563 15.061 33.624 33.624 33.624s33.624-15.061 33.624-33.624c0-53.036 43.171-96.206 96.098-96.206 53.036 0 96.206 43.171 96.206 96.206s-43.171 96.206-96.206 96.206c-18.563 0-33.518 15.061-33.518 33.624v116.994c0 18.563 15.061 33.624 33.518 33.624 18.563 0 33.624-15.061 33.624-33.624v-86.872c74.038-15.485 129.725-81.249 129.725-159.847 0-90.265-73.293-163.455-163.349-163.455v0z",
          "M509.561 701.123c-23.229 0-42.11 18.879-42.11 42.11s18.879 42.11 42.11 42.11c23.229 0 42.11-18.879 42.11-42.11s-18.775-42.11-42.11-42.11v0z"
        ],
        "attrs": [],
        "tags": [
          "question"
        ],
        "grid": 16
      },
      "attrs": [],
      "properties": {
        "order": 84,
        "id": 1,
        "name": "question",
        "prevSize": 48,
        "code": 59649
      },
      "setIdx": 0,
      "setId": 1,
      "iconIdx": 55
    },
    {
      "icon": {
        "paths": [
          "M638.945 359.453c-288.131 0-511.788 64.053-640 384 191.841-160.025 384-191.841 640-127.788v191.841l384-319.842-384-319.947v191.736z"
        ],
        "attrs": [],
        "tags": [
          "right-direction"
        ],
        "grid": 16
      },
      "attrs": [],
      "properties": {
        "order": 56,
        "id": 38,
        "name": "right-direction",
        "prevSize": 48,
        "code": 59686
      },
      "setIdx": 0,
      "setId": 1,
      "iconIdx": 56
    },
    {
      "icon": {
        "paths": [
          "M1013.212 494.486l-282.609-286.674c-16.053-16.157-41.907-16.157-57.96 0s-16.053 42.324 0 58.481l212.974 216.101h-843.552c-22.621 0-40.969 18.452-40.969 41.386 0 22.829 18.348 41.386 40.969 41.386h843.552l-212.974 215.997c-16.053 16.157-16.053 42.324 0 58.481s41.907 16.157 57.96 0l282.609-286.778c15.74-15.847 15.951-42.428 0-58.376v0z"
        ],
        "attrs": [],
        "tags": [
          "left-arrow"
        ],
        "grid": 16
      },
      "attrs": [],
      "properties": {
        "order": 126,
        "id": 21,
        "name": "left-arrow",
        "prevSize": 48,
        "code": 59669
      },
      "setIdx": 0,
      "setId": 1,
      "iconIdx": 57
    }
  ],
  "height": 1024,
  "metadata": {
    "name": "icomoon"
  },
  "preferences": {
    "showGlyphs": true,
    "showQuickUse": true,
    "showQuickUse2": true,
    "showSVGs": true,
    "fontPref": {
      "prefix": "icon-",
      "metadata": {
        "fontFamily": "icomoon",
        "majorVersion": 1,
        "minorVersion": 0
      },
      "metrics": {
        "emSize": 1024,
        "baseline": 6.25,
        "whitespace": 50
      },
      "embed": false,
      "showSelector": false,
      "showMetrics": false,
      "showMetadata": false,
      "showVersion": false
    },
    "imagePref": {
      "prefix": "icon-",
      "png": true,
      "useClassSelector": true,
      "color": 0,
      "bgColor": 16777215,
      "classSelector": ".icon"
    },
    "historySize": 50,
    "showCodes": true,
    "gridSize": 16,
    "showGrid": true,
    "showLiga": false
  }
}